[
  {
    "nomTypeEquipPrive": 1,
    "surfEquipPrive": "donnees_techniques.tax_pann_volt_sup_cr"
  },
  {
    "nomTypeEquipPrive": 2,
    "nbEquipPrive": "donnees_techniques.tax_eol_haut_nb_cr"
  }
]