{
  "architecte": null,
  "demandeur": {
    "38": {
      "bp": "999",
      "cedex": "01",
      "code_postal": "75001",
      "complement": "",
      "conseil_regional": "",
      "courriel": "katyperry@free.fr",
      "demandeur": "38",
      "division_territoriale": "",
      "fax": "",
      "frequent": "f",
      "indicatif": "",
      "lieu_dit": "Rolland",
      "localite": "Paris",
      "nom_cabinet": "",
      "notification": "t",
      "num_inscription": "",
      "numero": "67",
      "om_collectivite": "3",
      "particulier_civilite": "3",
      "particulier_commune_naissance": "Montreuil",
      "particulier_date_naissance": "1980-07-09",
      "particulier_departement_naissance": "093",
      "particulier_nom": "Perry",
      "particulier_pays_naissance": "France",
      "particulier_prenom": "Katy",
      "pays": "France",
      "personne_morale_categorie_juridique": "",
      "personne_morale_civilite": "",
      "personne_morale_denomination": "",
      "personne_morale_nom": "",
      "personne_morale_prenom": "",
      "personne_morale_raison_sociale": "",
      "personne_morale_siret": "",
      "petitionnaire_principal": "t",
      "qualite": "particulier",
      "telephone_fixe": "0876543266",
      "telephone_mobile": "",
      "type_demandeur": "petitionnaire",
      "voie": "rue de l'église"
    },
    "39": {
      "bp": "999",
      "cedex": "01",
      "code_postal": "93800",
      "complement": "",
      "conseil_regional": "",
      "courriel": "",
      "demandeur": "39",
      "division_territoriale": "",
      "fax": "",
      "frequent": "f",
      "indicatif": "",
      "lieu_dit": "Rolland",
      "localite": "Montreuil",
      "nom_cabinet": "",
      "notification": "f",
      "num_inscription": "",
      "numero": "67",
      "om_collectivite": "3",
      "particulier_civilite": "4",
      "particulier_commune_naissance": "",
      "particulier_date_naissance": "",
      "particulier_departement_naissance": "",
      "particulier_nom": "Bloom",
      "particulier_pays_naissance": "",
      "particulier_prenom": "Orlando",
      "pays": "France",
      "personne_morale_categorie_juridique": "",
      "personne_morale_civilite": "",
      "personne_morale_denomination": "",
      "personne_morale_nom": "",
      "personne_morale_prenom": "",
      "personne_morale_raison_sociale": "",
      "personne_morale_siret": "",
      "petitionnaire_principal": "f",
      "qualite": "particulier",
      "telephone_fixe": "",
      "telephone_mobile": "",
      "type_demandeur": "delegataire",
      "voie": "rue de l'église"
    },
    "40": {
      "bp": "888",
      "cedex": "99",
      "code_postal": "06200",
      "complement": "",
      "conseil_regional": "",
      "courriel": "",
      "demandeur": "40",
      "division_territoriale": "",
      "fax": "",
      "frequent": "f",
      "indicatif": "",
      "lieu_dit": "Rolland",
      "localite": "Aix-en-Provence",
      "nom_cabinet": "",
      "notification": "f",
      "num_inscription": "",
      "numero": "67",
      "om_collectivite": "3",
      "particulier_civilite": "3",
      "particulier_commune_naissance": "",
      "particulier_date_naissance": "",
      "particulier_departement_naissance": "",
      "particulier_nom": "Perry",
      "particulier_pays_naissance": "",
      "particulier_prenom": "Katy",
      "pays": "France",
      "personne_morale_categorie_juridique": "",
      "personne_morale_civilite": "",
      "personne_morale_denomination": "",
      "personne_morale_nom": "",
      "personne_morale_prenom": "",
      "personne_morale_raison_sociale": "",
      "personne_morale_siret": "",
      "petitionnaire_principal": "f",
      "qualite": "particulier",
      "telephone_fixe": "",
      "telephone_mobile": "",
      "type_demandeur": "proprietaire",
      "voie": "rue de l'espérance"
    }
  },
  "donnees_techniques": {
    "am_affou_exhau": "f",
    "am_affou_exhau_sup": "",
    "am_affou_prof": "",
    "am_air_terr_res_mob": "f",
    "am_aire_voyage": "f",
    "am_camping": "t",
    "am_carav_duree": "",
    "am_carav_nb": "25",
    "am_caravane": "f",
    "am_coupe_abat": "t",
    "am_coupe_age": "30",
    "am_coupe_align": "f",
    "am_coupe_autr": "",
    "am_coupe_bois": "t",
    "am_coupe_dens": "Forte",
    "am_coupe_ess": "bouleau",
    "am_coupe_parc": "f",
    "am_coupe_qual": "bon",
    "am_coupe_trait": "aucun",
    "am_div_mun": "f",
    "am_empl_hll_nb": "",
    "am_exhau_haut": "",
    "am_exist_agrand": "f",
    "am_exist_date": "",
    "am_exist_date_num": "",
    "am_exist_nb_apres": "",
    "am_exist_nb_avant": "",
    "am_exist_num": "",
    "am_hll_shon": "",
    "am_lotiss": "f",
    "am_mob_art": "f",
    "am_mobil_nb": "10",
    "am_mobil_voyage": "f",
    "am_modif_voie_esp": "f",
    "am_pers_nb": "500",
    "am_plant_voie_esp": "f",
    "am_projet_desc": "",
    "am_prot_muni": "f",
    "am_prot_plu": "f",
    "am_rememb_afu": "f",
    "am_statio": "f",
    "am_statio_cont": "",
    "am_tente_nb": "40",
    "am_terr_res_demon": "f",
    "am_terr_surf": "10000",
    "am_tranche_desc": "3",
    "cerfa": "172",
    "co_abo_monu_hist": "t",
    "co_anx_abri": "f",
    "co_anx_autr": "f",
    "co_anx_autr_desc": "",
    "co_anx_gara": "f",
    "co_anx_pisc": "f",
    "co_anx_veran": "f",
    "co_autre": "f",
    "co_autre_desc": "",
    "co_avis_abf": "f",
    "co_bat_niv_dessous_nb": "",
    "co_bat_niv_nb": "",
    "co_cloture": "f",
    "co_cstr_exist": "f",
    "co_cstr_nouv": "f",
    "co_derog_esp_prot": "t",
    "co_derog_innov": "f",
    "co_elec_tension": "",
    "co_fin_aa_nb": "",
    "co_fin_autr_nb": "",
    "co_fin_lls_nb": "",
    "co_fin_ptz_nb": "",
    "co_foyer_chamb_nb": "",
    "co_inst_ouvr_trav_act_code_envir": "t",
    "co_install_classe": "f",
    "co_log_1p_nb": "",
    "co_log_2p_nb": "",
    "co_log_3p_nb": "",
    "co_log_4p_nb": "",
    "co_log_5p_nb": "",
    "co_log_6p_nb": "",
    "co_peri_site_patri_remar": "t",
    "co_piscine": "t",
    "co_projet_desc": "Piscine sur le terrain de camping",
    "co_resid_agees": "f",
    "co_resid_autr": "f",
    "co_resid_autr_desc": "",
    "co_resid_etud": "f",
    "co_resid_hand": "f",
    "co_resid_hot_soc": "f",
    "co_resid_soc": "f",
    "co_resid_tourism": "t",
    "co_sp_act_soc": "f",
    "co_sp_culture": "t",
    "co_sp_enseign": "f",
    "co_sp_ouvr_spe": "f",
    "co_sp_sante": "f",
    "co_sp_transport": "f",
    "co_statio_adr": "67 rue de l'espérance",
    "co_statio_apr_nb": "50",
    "co_statio_avt_nb": "0",
    "co_statio_comm_cin_surf": "500",
    "co_statio_place_nb": "50",
    "co_statio_tot_shob": "0",
    "co_statio_tot_surf": "500",
    "co_tot_coll_nb": "",
    "co_tot_ind_nb": "",
    "co_tot_log_nb": "",
    "co_trav_auto_env": "t",
    "co_trx_exten": "f",
    "co_trx_nivsup": "f",
    "co_trx_surelev": "f",
    "co_uti_loc": "f",
    "co_uti_pers": "f",
    "co_uti_princ": "f",
    "co_uti_secon": "f",
    "co_uti_vente": "f",
    "code_cnil": "f",
    "daact_date": "",
    "daact_date_chgmt_dest": "",
    "daact_nb_log": "",
    "daact_nb_log_aa": "",
    "daact_nb_log_autre": "",
    "daact_nb_log_coll": "",
    "daact_nb_log_indiv": "",
    "daact_nb_log_lls": "",
    "daact_nb_log_ptz": "",
    "daact_surf": "",
    "daact_tot_trav": "f",
    "daact_tranche_trav": "f",
    "daact_tranche_trav_desc": "",
    "doc_date": "",
    "doc_nb_log": "",
    "doc_nb_log_aa": "",
    "doc_nb_log_autre": "",
    "doc_nb_log_coll": "",
    "doc_nb_log_indiv": "",
    "doc_nb_log_lls": "",
    "doc_nb_log_ptz": "",
    "doc_surf": "",
    "doc_tot_trav": "f",
    "doc_tranche_trav": "f",
    "doc_tranche_trav_desc": "",
    "donnees_techniques": "34",
    "enga_decla_date": "2020-01-01",
    "enga_decla_donnees_nomi_comm": "t",
    "enga_decla_lieu": "Paris",
    "exo_facul_1": "f",
    "exo_facul_2": "f",
    "exo_facul_3": "f",
    "exo_facul_4": "f",
    "exo_facul_5": "f",
    "exo_facul_6": "f",
    "exo_facul_7": "f",
    "exo_facul_8": "f",
    "exo_facul_9": "f",
    "exo_rap_1": "f",
    "exo_rap_2": "f",
    "exo_rap_3": "f",
    "exo_rap_4": "f",
    "exo_rap_5": "f",
    "exo_rap_6": "f",
    "exo_rap_7": "f",
    "exo_rap_8": "f",
    "exo_ta_1": "f",
    "exo_ta_2": "f",
    "exo_ta_3": "f",
    "exo_ta_4": "f",
    "exo_ta_5": "f",
    "exo_ta_6": "f",
    "exo_ta_7": "f",
    "exo_ta_8": "f",
    "exo_ta_9": "f",
    "mtn_exo_rap": "",
    "mtn_exo_ta_part_commu": "",
    "mtn_exo_ta_part_depart": "",
    "mtn_exo_ta_part_reg": "",
    "su2_avt_shon1": "",
    "su2_avt_shon10": "",
    "su2_avt_shon11": "",
    "su2_avt_shon12": "",
    "su2_avt_shon13": "",
    "su2_avt_shon14": "",
    "su2_avt_shon15": "",
    "su2_avt_shon16": "",
    "su2_avt_shon17": "",
    "su2_avt_shon18": "",
    "su2_avt_shon19": "",
    "su2_avt_shon2": "",
    "su2_avt_shon20": "",
    "su2_avt_shon3": "",
    "su2_avt_shon4": "",
    "su2_avt_shon5": "",
    "su2_avt_shon6": "",
    "su2_avt_shon7": "",
    "su2_avt_shon8": "",
    "su2_avt_shon9": "0",
    "su2_avt_shon_tot": "0",
    "su2_chge_shon1": "",
    "su2_chge_shon10": "",
    "su2_chge_shon11": "",
    "su2_chge_shon12": "",
    "su2_chge_shon13": "",
    "su2_chge_shon14": "",
    "su2_chge_shon15": "",
    "su2_chge_shon16": "",
    "su2_chge_shon17": "",
    "su2_chge_shon18": "",
    "su2_chge_shon19": "",
    "su2_chge_shon2": "",
    "su2_chge_shon20": "",
    "su2_chge_shon3": "",
    "su2_chge_shon4": "",
    "su2_chge_shon5": "",
    "su2_chge_shon6": "",
    "su2_chge_shon7": "",
    "su2_chge_shon8": "",
    "su2_chge_shon9": "0",
    "su2_chge_shon_tot": "0",
    "su2_cstr_shon1": "",
    "su2_cstr_shon10": "",
    "su2_cstr_shon11": "",
    "su2_cstr_shon12": "",
    "su2_cstr_shon13": "",
    "su2_cstr_shon14": "",
    "su2_cstr_shon15": "",
    "su2_cstr_shon16": "",
    "su2_cstr_shon17": "",
    "su2_cstr_shon18": "",
    "su2_cstr_shon19": "",
    "su2_cstr_shon2": "",
    "su2_cstr_shon20": "",
    "su2_cstr_shon3": "",
    "su2_cstr_shon4": "",
    "su2_cstr_shon5": "",
    "su2_cstr_shon6": "",
    "su2_cstr_shon7": "",
    "su2_cstr_shon8": "",
    "su2_cstr_shon9": "10000",
    "su2_cstr_shon_tot": "10000",
    "su2_demo_shon1": "",
    "su2_demo_shon10": "",
    "su2_demo_shon11": "",
    "su2_demo_shon12": "",
    "su2_demo_shon13": "",
    "su2_demo_shon14": "",
    "su2_demo_shon15": "",
    "su2_demo_shon16": "",
    "su2_demo_shon17": "",
    "su2_demo_shon18": "",
    "su2_demo_shon19": "",
    "su2_demo_shon2": "",
    "su2_demo_shon20": "",
    "su2_demo_shon3": "",
    "su2_demo_shon4": "",
    "su2_demo_shon5": "",
    "su2_demo_shon6": "",
    "su2_demo_shon7": "",
    "su2_demo_shon8": "",
    "su2_demo_shon9": "0",
    "su2_demo_shon_tot": "0",
    "su2_sup_shon1": "",
    "su2_sup_shon10": "",
    "su2_sup_shon11": "",
    "su2_sup_shon12": "",
    "su2_sup_shon13": "",
    "su2_sup_shon14": "",
    "su2_sup_shon15": "",
    "su2_sup_shon16": "",
    "su2_sup_shon17": "",
    "su2_sup_shon18": "",
    "su2_sup_shon19": "",
    "su2_sup_shon2": "",
    "su2_sup_shon20": "",
    "su2_sup_shon3": "",
    "su2_sup_shon4": "",
    "su2_sup_shon5": "",
    "su2_sup_shon6": "",
    "su2_sup_shon7": "",
    "su2_sup_shon8": "",
    "su2_sup_shon9": "0",
    "su2_sup_shon_tot": "0",
    "su2_tot_shon1": "0",
    "su2_tot_shon10": "0",
    "su2_tot_shon11": "0",
    "su2_tot_shon12": "0",
    "su2_tot_shon13": "0",
    "su2_tot_shon14": "0",
    "su2_tot_shon15": "0",
    "su2_tot_shon16": "0",
    "su2_tot_shon17": "0",
    "su2_tot_shon18": "0",
    "su2_tot_shon19": "0",
    "su2_tot_shon2": "0",
    "su2_tot_shon20": "0",
    "su2_tot_shon3": "0",
    "su2_tot_shon4": "0",
    "su2_tot_shon5": "0",
    "su2_tot_shon6": "0",
    "su2_tot_shon7": "0",
    "su2_tot_shon8": "0",
    "su2_tot_shon9": "10000",
    "su2_tot_shon_tot": "",
    "tax_adresse_future_bp": "",
    "tax_adresse_future_cedex": "",
    "tax_adresse_future_cp": "",
    "tax_adresse_future_division": "",
    "tax_adresse_future_lieudit": "",
    "tax_adresse_future_localite": "",
    "tax_adresse_future_numero": "",
    "tax_adresse_future_pays": "",
    "tax_adresse_future_voie": "",
    "tax_am_statio_ext_cr": "50",
    "tax_comm_nb": "",
    "tax_desc": "",
    "tax_empl_hll_nb_cr": "",
    "tax_empl_ten_carav_mobil_nb_cr": "75",
    "tax_eol_haut_nb_cr": "",
    "tax_ext_desc": "",
    "tax_ext_pret": "f",
    "tax_log_exist_nb": "0",
    "tax_monu_hist": "f",
    "tax_pann_volt_sup_cr": "",
    "tax_statut_info": "Déclaré",
    "tax_su_heber_log_nb1": "",
    "tax_su_heber_log_nb2": "",
    "tax_su_heber_log_nb3": "",
    "tax_su_heber_surf1": "",
    "tax_su_heber_surf2": "",
    "tax_su_heber_surf3": "",
    "tax_su_heber_surf_stat1": "",
    "tax_su_heber_surf_stat2": "",
    "tax_su_heber_surf_stat3": "",
    "tax_su_non_habit_surf1": "",
    "tax_su_non_habit_surf4": "",
    "tax_su_non_habit_surf5": "",
    "tax_su_non_habit_surf6": "",
    "tax_su_non_habit_surf7": "",
    "tax_su_non_habit_surf8": "",
    "tax_su_non_habit_surf9": "",
    "tax_su_non_habit_surf_stat1": "",
    "tax_su_non_habit_surf_stat4": "",
    "tax_su_non_habit_surf_stat5": "",
    "tax_su_non_habit_surf_stat6": "",
    "tax_su_non_habit_surf_stat7": "",
    "tax_su_non_habit_surf_stat8": "",
    "tax_su_non_habit_surf_stat9": "",
    "tax_su_parc_statio_expl_comm_surf": "",
    "tax_su_princ_log_nb1": "",
    "tax_su_princ_log_nb2": "",
    "tax_su_princ_log_nb3": "",
    "tax_su_princ_log_nb4": "",
    "tax_su_princ_surf1": "10000",
    "tax_su_princ_surf2": "",
    "tax_su_princ_surf3": "",
    "tax_su_princ_surf4": "",
    "tax_su_princ_surf_stat1": "",
    "tax_su_princ_surf_stat2": "",
    "tax_su_princ_surf_stat3": "",
    "tax_su_princ_surf_stat4": "",
    "tax_su_secon_log_nb": "",
    "tax_su_secon_surf": "",
    "tax_su_secon_surf_stat": "",
    "tax_su_tot_log_nb": "",
    "tax_su_tot_surf": "",
    "tax_su_tot_surf_stat": "",
    "tax_sup_bass_pisc_cr": "40",
    "tax_surf_abr_jard_pig_colom": "",
    "tax_surf_loc_stat": "",
    "tax_surf_tax_demo": "0",
    "tax_surf_tax_exist_cons": "0",
    "tax_surf_tot_cstr": "10000",
    "tax_surf_tot_demo": "0",
    "tax_terrassement_arch": "f",
    "tax_trx_presc_ppr": "f",
    "terr_juri_afu": "non",
    "terr_juri_desc": "",
    "terr_juri_lot": "non",
    "terr_juri_oin": "non",
    "terr_juri_pup": "non",
    "terr_juri_titul": "non",
    "terr_juri_zac": "non",
    "vsd_const_sxist_non_dem_surf": "",
    "vsd_rescr_fisc": "",
    "vsd_surf_planch_smd": "f",
    "vsd_unit_fonc_constr_sup": "",
    "vsd_unit_fonc_sup": "",
    "vsd_val_terr": ""
  },
  "dossier": {
    "a_qualifier": "t",
    "accord_tacite": "Non",
    "adresse_normalisee": "",
    "adresse_normalisee_json": "",
    "annee": "20",
    "autorisation_contestee": "",
    "autorite_competente": "1",
    "autorite_competente_code": "COM",
    "avis_decision": "7",
    "contrevenants": "",
    "ctx_reference_dsj": "",
    "ctx_reference_sagace": "",
    "date_achevement": "",
    "date_affichage": "",
    "date_ait": "",
    "date_audience": "",
    "date_chantier": "",
    "date_cloture_instruction": "",
    "date_complet": "2020-01-01",
    "date_conformite": "",
    "date_contradictoire": "",
    "date_decision": "2018-02-01",
    "date_demande": "2020-01-01",
    "date_depot": "2020-01-01",
    "date_depot_mairie": "",
    "date_dernier_depot": "2020-01-01",
    "date_derniere_visite": "",
    "date_limite": "2020-02-01",
    "date_limite_incompletude": "",
    "date_modification": "2020-11-27",
    "date_notification_delai": "2020-02-01",
    "date_premiere_visite": "",
    "date_rejet": "",
    "date_retour_contradictoire": "",
    "date_transmission_parquet": "",
    "date_validite": "2021-02-01",
    "delai": "1",
    "delai_incompletude": "",
    "depot_electronique": "f",
    "description": "",
    "description_projet": "Piscine sur le terrain de camping",
    "division": "1",
    "dossier": "DP0130552000009",
    "dossier_arrondissement": "",
    "dossier_autorisation": "DP0130552000009",
    "dossier_autorisation_libelle": "DP 013055 20 00009",
    "dossier_autorisation_type_code": "DP",
    "dossier_autorisation_type_detaille": "DECLARATION PREALABLE",
    "dossier_autorisation_type_detaille_code": "DP",
    "dossier_instruction_type": "600",
    "dossier_instruction_type_code": "P",
    "dossier_libelle": "DP 013055 20 00009",
    "dossier_petitionnaire": "Perry Katy",
    "dossier_petitionnaires": "",
    "dossier_suffixe": "",
    "dt_ctx_infraction": "f",
    "dt_ctx_regularisable": "f",
    "dt_ctx_synthese_anr": "",
    "dt_ctx_synthese_nti": "",
    "duree_validite": "36",
    "enjeu_ctx": "",
    "enjeu_erp": "f",
    "enjeu_urba": "f",
    "erp": "f",
    "etat": "accepter",
    "etat_pendant_incompletude": "",
    "evenement_suivant_tacite": "218",
    "evenement_suivant_tacite_incompletude": "",
    "geom": "",
    "geom1": "",
    "hash_sitadel": "",
    "incomplet_notifie": "f",
    "incompletude": "f",
    "insee": "13055",
    "instructeur": "1",
    "instructeur_2": "",
    "interface_referentiel_erp": "f",
    "numero_versement_archive": "",
    "om_collectivite": "3",
    "parcelle_temporaire": "f",
    "quartier": "",
    "requerants": "",
    "tax_mtn_part_commu": "",
    "tax_mtn_part_commu_sans_exo": "",
    "tax_mtn_part_depart": "",
    "tax_mtn_part_depart_sans_exo": "",
    "tax_mtn_part_reg": "",
    "tax_mtn_part_reg_sans_exo": "",
    "tax_mtn_rap": "",
    "tax_mtn_rap_sans_exo": "",
    "tax_mtn_total": "",
    "tax_mtn_total_sans_exo": "",
    "tax_secteur": "",
    "terrain": "555AA9999 111AA1111 222ZZ2222 333EE3333 444RR4444 555TT5555 666YY6666 777UU7777 888II8888 999OO9999 000PP0000 111QQ1111 222SS2222 333DD3333 444FF4444 555GG5555 666HH6666 777JJ7777 888KK8888 999LL9999 000MM0000   67 rue de l'espérance 75001",
    "terrain_adresse_bp": "",
    "terrain_adresse_cedex": "",
    "terrain_adresse_code_postal": "75001",
    "terrain_adresse_lieu_dit": "",
    "terrain_adresse_localite": "Paris",
    "terrain_adresse_voie": "rue de l'espérance",
    "terrain_adresse_voie_numero": "67",
    "terrain_references_cadastrales": "555AA9999;111AA1111;222ZZ2222;333EE3333;444RR4444;555TT5555;666YY6666;777UU7777;888II8888;999OO9999;000PP0000;111QQ1111;222SS2222;333DD3333;444FF4444;555GG5555;666HH6666;777JJ7777;888KK8888;999LL9999;000MM0000;",
    "terrain_superficie": "10000",
    "version": "0",
    "version_clos": "0"
  },
  "dossier_parcelle": {
    "174": {
      "dossier_parcelle": "174",
      "libelle": "555AA9999",
      "no_ordre": 1
    },
    "175": {
      "dossier_parcelle": "175",
      "libelle": "111AA1111",
      "no_ordre": 2
    },
    "176": {
      "dossier_parcelle": "176",
      "libelle": "222ZZ2222",
      "no_ordre": 3
    },
    "177": {
      "dossier_parcelle": "177",
      "libelle": "333EE3333",
      "no_ordre": 4
    },
    "178": {
      "dossier_parcelle": "178",
      "libelle": "444RR4444",
      "no_ordre": 5
    },
    "179": {
      "dossier_parcelle": "179",
      "libelle": "555TT5555",
      "no_ordre": 6
    },
    "180": {
      "dossier_parcelle": "180",
      "libelle": "666YY6666",
      "no_ordre": 7
    },
    "181": {
      "dossier_parcelle": "181",
      "libelle": "777UU7777",
      "no_ordre": 8
    },
    "182": {
      "dossier_parcelle": "182",
      "libelle": "888II8888",
      "no_ordre": 9
    },
    "183": {
      "dossier_parcelle": "183",
      "libelle": "999OO9999",
      "no_ordre": 10
    },
    "184": {
      "dossier_parcelle": "184",
      "libelle": "000PP0000",
      "no_ordre": 11
    },
    "185": {
      "dossier_parcelle": "185",
      "libelle": "111QQ1111",
      "no_ordre": 12
    },
    "186": {
      "dossier_parcelle": "186",
      "libelle": "222SS2222",
      "no_ordre": 13
    },
    "187": {
      "dossier_parcelle": "187",
      "libelle": "333DD3333",
      "no_ordre": 14
    },
    "188": {
      "dossier_parcelle": "188",
      "libelle": "444FF4444",
      "no_ordre": 15
    },
    "189": {
      "dossier_parcelle": "189",
      "libelle": "555GG5555",
      "no_ordre": 16
    },
    "190": {
      "dossier_parcelle": "190",
      "libelle": "666HH6666",
      "no_ordre": 17
    },
    "191": {
      "dossier_parcelle": "191",
      "libelle": "777JJ7777",
      "no_ordre": 18
    },
    "192": {
      "dossier_parcelle": "192",
      "libelle": "888KK8888",
      "no_ordre": 19
    },
    "193": {
      "dossier_parcelle": "193",
      "libelle": "999LL9999",
      "no_ordre": 20
    },
    "194": {
      "dossier_parcelle": "194",
      "libelle": "000MM0000",
      "no_ordre": 21
    }
  },
  "external_uids": {
    "dossier": "",
    "dossier_autorisation": ""
  },
  "task": {
    "dossier": "DP0130552000009",
    "json_payload": "",
    "object_id": "DP0130552000009",
    "state": "new",
    "task": "115",
    "timestamp_log": {
      "creation_date": "2020-11-27 14:23:56"
    },
    "type": "depot_DI"
  }
}