{
  "donnees_techniques":
  {
    "cerfa": "171",
    "co_abo_monu_hist": "t",
    "co_peri_site_patri_remar": "t",
    "code_cnil": "f",
    "daact_date": "",
    "daact_date_chgmt_dest": "",
    "daact_nb_log": "",
    "daact_nb_log_aa": "",
    "daact_nb_log_autre": "",
    "daact_nb_log_coll": "",
    "daact_nb_log_indiv": "",
    "daact_nb_log_lls": "",
    "daact_nb_log_ptz": "",
    "daact_surf": "",
    "daact_tot_trav": "f",
    "daact_tranche_trav": "f",
    "daact_tranche_trav_desc": "",
    "doc_date": "",
    "doc_nb_log": "",
    "doc_nb_log_aa": "",
    "doc_nb_log_autre": "",
    "doc_nb_log_coll": "",
    "doc_nb_log_indiv": "",
    "doc_nb_log_lls": "",
    "doc_nb_log_ptz": "",
    "doc_surf": "",
    "doc_tot_trav": "f",
    "doc_tranche_trav": "f",
    "doc_tranche_trav_desc": "",
    "donnees_techniques": "37",
    "enga_decla_date": "2020-08-06",
    "enga_decla_donnees_nomi_comm": "f",
    "enga_decla_lieu": "St Jean de Pied de Port",
    "ope_proj_div_co": "t",
    "ope_proj_div_contr": "t",
    "tax_statut_info": "Déclaré",
    "terr_juri_titul": "oui",
    "terr_juri_titul_date": "2020-01-15"
  },
  "dossier_autorisation":
  {
    "adresse_normalisee": "",
    "adresse_normalisee_json": "",
    "arrondissement": "",
    "avis_decision": "",
    "cle_acces_citoyen": "",
    "commune": "",
    "date_achevement": "",
    "date_chantier": "",
    "date_decision": "",
    "date_depot": "2021-06-29",
    "date_validite": "",
    "depot_initial": "2021-06-29",
    "dossier_autorisation": "DP0130552100010",
    "dossier_autorisation_libelle": "DP 013055 21 00010",
    "dossier_autorisation_type_detaille": "421",
    "erp_arrete_decision": "",
    "erp_date_arrete_decision": "",
    "erp_date_ouverture": "",
    "erp_numero_batiment": "",
    "erp_ouvert": "",
    "etat_dernier_dossier_instruction_accepte": "",
    "etat_dossier_autorisation": "1",
    "exercice": "",
    "insee": "13055",
    "numero_version": "0",
    "numero_version_clos": "",
    "numerotation_com": "055",
    "numerotation_dep": "013",
    "numerotation_division": "0",
    "numerotation_num": "10",
    "numerotation_type": "DP",
    "om_collectivite": "1",
    "terrain_adresse_bp": "",
    "terrain_adresse_cedex": "",
    "terrain_adresse_code_postal": "64220",
    "terrain_adresse_lieu_dit": "",
    "terrain_adresse_localite": "Saint-Jean-Pied-de-Port",
    "terrain_adresse_voie": "Voie terrain",
    "terrain_adresse_voie_numero": "",
    "terrain_references_cadastrales": "000AA0000;",
    "terrain_superficie": "666"
  },
  "dossier_autorisation_parcelle":
  {
    "22":
    {
      "dossier_autorisation_parcelle": "22",
      "libelle": "000AA0000",
      "no_ordre": 1
    }
  },
  "external_uids":
  {
    "dossier_autorisation": ""
  },
  "task":
  {
    "dossier": "DP0130552100010",
    "json_payload": "{}",
    "object_id": "DP0130552100010",
    "state": "new",
    "stream": "output",
    "task": "169",
    "timestamp_log":
    {
      "creation_date": "2021-06-29 10:48:35"
    },
    "type": "creation_DA"
  }
}