{
  "dossier": {
    "a_qualifier": "t",
    "accord_tacite": "Non",
    "adresse_normalisee": "",
    "adresse_normalisee_json": "",
    "annee": "20",
    "autorisation_contestee": "",
    "autorite_competente": "1",
    "autorite_competente_code": "COM",
    "avis_decision": "7",
    "contrevenants": "",
    "ctx_reference_dsj": "",
    "ctx_reference_sagace": "",
    "date_achevement": "",
    "date_affichage": "",
    "date_ait": "",
    "date_audience": "",
    "date_chantier": "",
    "date_cloture_instruction": "",
    "date_complet": "2020-01-01",
    "date_conformite": "",
    "date_contradictoire": "",
    "date_decision": "2018-02-01",
    "date_demande": "2020-01-01",
    "date_depot": "2020-01-01",
    "date_depot_mairie": "",
    "date_dernier_depot": "2020-01-01",
    "date_derniere_visite": "",
    "date_limite": "2020-02-01",
    "date_limite_incompletude": "",
    "date_modification": "2020-11-27",
    "date_notification_delai": "2020-02-01",
    "date_premiere_visite": "",
    "date_rejet": "",
    "date_retour_contradictoire": "",
    "date_transmission_parquet": "",
    "date_validite": "2021-02-01",
    "delai": "1",
    "delai_incompletude": "",
    "depot_electronique": "f",
    "description": "",
    "description_projet": "Piscine sur le terrain de camping",
    "division": "1",
    "dossier": "DP0130552000009",
    "dossier_arrondissement": "",
    "dossier_autorisation": "DP0130552000009",
    "dossier_autorisation_libelle": "DP 013055 20 00009",
    "dossier_autorisation_type_code": "DPMI",
    "dossier_autorisation_type_detaille": "DECLARATION PREALABLE MAISON INDIVIDUELLE",
    "dossier_autorisation_type_detaille_code": "DPMI",
    "dossier_instruction_type": "600",
    "dossier_instruction_type_code": "P",
    "dossier_libelle": "DP 013055 20 00009",
    "dossier_petitionnaire": "Perry Katy",
    "dossier_petitionnaires": "",
    "dossier_suffixe": "",
    "dt_ctx_infraction": "f",
    "dt_ctx_regularisable": "f",
    "dt_ctx_synthese_anr": "",
    "dt_ctx_synthese_nti": "",
    "duree_validite": "36",
    "enjeu_ctx": "",
    "enjeu_erp": "f",
    "enjeu_urba": "f",
    "erp": "f",
    "etat": "accepter",
    "etat_pendant_incompletude": "",
    "evenement_suivant_tacite": "218",
    "evenement_suivant_tacite_incompletude": "",
    "geom": "",
    "geom1": "",
    "hash_sitadel": "",
    "incomplet_notifie": "f",
    "incompletude": "f",
    "insee": "13055",
    "instructeur": "1",
    "instructeur_2": "",
    "interface_referentiel_erp": "f",
    "numero_versement_archive": "",
    "om_collectivite": "3",
    "parcelle_temporaire": "f",
    "quartier": "",
    "requerants": "",
    "tax_mtn_part_commu": "",
    "tax_mtn_part_commu_sans_exo": "",
    "tax_mtn_part_depart": "",
    "tax_mtn_part_depart_sans_exo": "",
    "tax_mtn_part_reg": "",
    "tax_mtn_part_reg_sans_exo": "",
    "tax_mtn_rap": "",
    "tax_mtn_rap_sans_exo": "",
    "tax_mtn_total": "",
    "tax_mtn_total_sans_exo": "",
    "tax_secteur": "",
    "terrain": "555AA9999 111AA1111 222ZZ2222 333EE3333 444RR4444 555TT5555 666YY6666 777UU7777 888II8888 999OO9999 000PP0000 111QQ1111 222SS2222 333DD3333 444FF4444 555GG5555 666HH6666 777JJ7777 888KK8888 999LL9999 000MM0000   67 rue de l'espérance 75001",
    "terrain_adresse_bp": "",
    "terrain_adresse_cedex": "",
    "terrain_adresse_code_postal": "75001",
    "terrain_adresse_lieu_dit": "",
    "terrain_adresse_localite": "Paris",
    "terrain_adresse_voie": "rue de l'espérance",
    "terrain_adresse_voie_numero": "67",
    "terrain_references_cadastrales": "555AA9999;111AA1111;222ZZ2222;333EE3333;444RR4444;555TT5555;666YY6666;777UU7777;888II8888;999OO9999;000PP0000;111QQ1111;222SS2222;333DD3333;444FF4444;555GG5555;666HH6666;777JJ7777;888KK8888;999LL9999;000MM0000;",
    "terrain_superficie": "10000",
    "version": "0",
    "version_clos": "0"
  },
  "external_uids": {
    "dossier": "",
    "dossier_autorisation": ""
  },
  "instruction": {
    "date_envoi_signature": "2018-02-01",
    "date_retour_rar": "2018-02-01",
    "date_retour_signature": "2018-02-01",
    "om_fichier_instruction": "4106a659cdfc0fc093bb4a0e1b68bfe6",
    "path": "app/index.php?module=form&snippet=file&obj=instruction&champ=om_fichier_instruction&id=68",
    "tacite": "f",
    "nom_fichier": "DP_decision_DI.pdf"
  },
  "task": {
    "dossier": "DP0130552000009",
    "json_payload": "",
    "object_id": "DP0130552000009",
    "state": "new",
    "task": "121",
    "timestamp_log": {
      "creation_date": "2020-11-27 14:26:17"
    },
    "type": "decision_DI"
  }
}