{
  "demandeur": [
    {
      "bp": "999",
      "cedex": "01",
      "code_postal": "75001",
      "courriel": "katyperry@free.fr",
      "lieu_dit": "Rolland",
      "localite": "Paris",
      "particulier_civilite": "3",
      "particulier_commune_naissance": "Montreuil",
      "particulier_date_naissance": "1980-07-09",
      "particulier_departement_naissance": "093",
      "particulier_nom": "Perry",
      "particulier_pays_naissance": "France",
      "particulier_prenom": "Katy",
      "pays": "France",
      "petitionnaire_principal": "t",
      "qualite": "particulier",
      "telephone_fixe": "0876543266",
      "type_demandeur": "petitionnaire",
      "voie": "rue de l'église"
    },
    {
      "bp": "999",
      "cedex": "01",
      "code_postal": "93800",
      "lieu_dit": "Rolland",
      "localite": "Montreuil",
      "notification": "f",
      "particulier_civilite": "4",
      "particulier_nom": "Bloom",
      "particulier_prenom": "Orlando",
      "pays": "France",
      "petitionnaire_principal": "f",
      "qualite": "particulier",
      "type_demandeur": "delegataire",
      "voie": "rue de l'église"
    },

    {
      "code_postal": "75000",
      "courriel": "metropole.construction@nomail.com",
      "frequent": "f",
      "localite": "Paris",
      "pays": "France",
      "personne_morale_categorie_juridique": "SA",
      "personne_morale_civilite": "4",
      "personne_morale_denomination": "Métropole Construction",
      "personne_morale_nom": "Dupré",
      "personne_morale_prenom": "Michel",
      "personne_morale_raison_sociale": "Métropole Construction SA",
      "personne_morale_siret": "36252187900034",
      "petitionnaire_principal": "f",
      "qualite": "personne_morale",
      "type_demandeur": "petitionnaire",
      "voie": "Avenue Clémenceau"
    },
    {
      "bp": "888",
      "cedex": "99",
      "code_postal": "06200",
      "demandeur": "40",
      "lieu_dit": "Rolland",
      "localite": "Aix-en-Provence",
      "notification": "f",
      "numero": "67",
      "om_collectivite": "3",
      "particulier_civilite": "3",
      "particulier_nom": "Perry",
      "particulier_prenom": "Katy",
      "pays": "France",
      "petitionnaire_principal": "f",
      "qualite": "particulier",
      "type_demandeur": "proprietaire",
      "voie": "rue de l'espérance"
    }
  ],
  "dossier": {
    "acteur": "YW8-LKO-6X3",
    "date_demande": "2020-01-01",
    "description_projet": "Piscine sur le terrain de camping",
    "dossier": "DP0130552000009",
    "dossier_autorisation_type_detaille_code": "DPMI",
    "insee": "13055",
    "terrain_adresse_code_postal": "75001",
    "terrain_adresse_localite": "Paris",
    "terrain_adresse_voie": "rue de l'espérance",
    "terrain_adresse_voie_numero": "67",
    "terrain_references_cadastrales": "555AA9999;111AA1111;222ZZ2222;333EE3333;444RR4444;555TT5555;666YY6666;777UU7777;888II8888;999OO9999;000PP0000;111QQ1111;222SS2222;333DD3333;444FF4444;555GG5555;666HH6666;777JJ7777;888KK8888;999LL9999;000MM0000;"
  },
  "external_uids": {
    "dossier": "7SZ-SX8-TR4",
    "consultation": "2SZ-SX8-AZ6"
  }
}