"idNom.int32()","libNom.string()","dtMiseEnPlace.date(02/01/2006)","dtObsolescence.date(02/01/2006)"
1,"Versée",01/01/2020
2,"Refusée",02/01/2020
3,"Prise en compte (en cours de traitement)",03/01/2020
4,"Prise en compte (intention de prescrire)",04/01/2020
5,"Nulle et non avenue",05/01/2020
6,"Traitée",06/01/2020
