"idNom.int32()","libNom.string()","dtMiseEnPlace.date(02/01/2006)","dtObsolescence.date(02/01/2006)"
1,"Au nom de la commune",01/01/2020
2,"Au nom de l’EPCI",02/01/2020
3,"Au nom de l’Etat",03/01/2020
