"idNom.int32()","libNom.string()","dtMiseEnPlace.date(02/01/2006)","dtObsolescence.date(02/01/2006)"
1,"Favorable",01/01/2020
2,"Favorable assorti d’une ou plusieurs prescriptions",02/01/2020
3,"Défavorable",03/01/2020
4,"Pas d’avis car consultation sans objet",04/01/2020
5,"Pas d’avis suite à déclaration d’incomplétude du dossier",12/05/2021
6,"Pas d’avis - à motiver dans la partie Fondement de l’avis",12/05/2021
