"idNom.int32()","libNom.string()","dtMiseEnPlace.date(02/01/2006)","dtObsolescence.date(02/01/2006)"
1,"Formulaire DP 13404",04/12/2019
2,"Formulaire PD 13405",04/12/2019
3,"Formulaire PCMI 13406",04/12/2019
4,"Formulaire PC 13409",04/12/2019
5,"Formulaire CU 13410",04/12/2019
6,"Formulaire DPlotissement 13702",04/12/2019
7,"Formulaire DPMI 13703",04/12/2019
8,"Formulaire PA 88065",04/12/2019
9,"Accord du gestionnaire du domaine pour engager la procédure d’autorisation d’occupation temporaire du domaine public",04/12/2019
10,"Analyse de compatibilité du projet avec la canalisation du point de vue de la sécurité des personnes",04/12/2019
11,"Attestation assurant le respect des règles d’hygiène, de sécurité, de satisfaction des besoins en eau, assainissement et électricité",04/12/2019
12,"Attestation constatant que les travaux réalisés respectent les règles d’accessibilité applicables",04/12/2019
13,"Attestation d’un contrôleur technique",04/12/2019
14,"Attestation de conformité du projet d’installation d’assainissement non collectif pour un projet avec construction",04/12/2019
15,"Attestation de l’accord du lotisseur pour un projet  qui porte sur la subdivision d’un lot provenant d’un lotissement soumis à permis d’aménager",04/12/2019
16,"Statut de l’établissement public",04/12/2019
17,"Statuts de l’association",04/12/2019
19,"Attestation de l’aménageur certifiant qu’il a réalisé ou prendra en charge l’intégralité des travaux",04/12/2019
20,"Attestation de l’architecte ou de l’expert certifiant que l’étude a été réalisée et que le projet la prend en compte",04/12/2019
21,"Attestation de l’assureur, que les indemnités versées en réparation des dommages ne comprennent pas le montant des taxes d’urbanisme",04/12/2019
22,"Attestation de paiement d’une redevance d’archéologie préventive au titre de la réalisation d’un diagnostic suite à une demande anticipée de prescription archéologique ou au titre de la loi du 1er août 2003 relative à l’archéologie préventive pour les installations classées",04/12/2019
23,"Attestation de prise en compte de la règlementation acoustique",04/12/2019
24,"Attestation de prise en compte de la règlementation thermique",04/12/2019,30/06/2021
25,"Attestation établie par un bureau d’études certifié dans le domaine des sites et sols pollués pour un projet qui comporte des constructions sur un terrain ayant accueilli une installation classée",04/12/2019
26,"Bilan de la concertation",04/12/2019
27,"Bilan de la concertation assorti du document conclusif",04/12/2019
28,"Certificat attestant l’achèvement des équipements desservant le lot",04/12/2019
29,"Certificat fourni par le lotisseur",04/12/2019
30,"Certificat indiquant la surface constructible attribuée à votre lot",04/12/2019
31,"Convention entre la commune ou l’établissement public et qui fixe la participation au coût des équipements de la zone",04/12/2019
32,"Copie de l’agrément",04/12/2019
33,"Attestation montrant le caractère équivalent des résultats obtenus par les moyens mis en oeuvre ainsi que leur caractère innovant",04/12/2019
34,"Dossier de demande d’autorisation de travaux conduisant à la création de locaux à usage d’habitation dans un immeuble existant",04/12/2019
35,"Copie de la lettre du préfet attestant que le dossier de demande est complet",04/12/2019
36,"Copie de la lettre du préfet qui vous fait savoir que votre demande d’autorisation de défrichement est complète si le projet comporte des constructions",04/12/2019
37,"Copie des dispositions du cahier des charges de cession de terrain approuvé et publié qui indiquent le nombre de m² constructibles sur la parcelle et, si elles existent, des dispositions du cahier des charges, qui fixent les prescriptions techniques, urbanistiques et architecturales imposées pour la durée de réalisation de la zone",04/12/2019
38,"Copie du contrat ayant procédé au transfert de possibilité de construction résultant du COS",04/12/2019
39,"Copie du contrat ou de la décision judiciaire relative à l’institution de ces servitudes",04/12/2019
40,"Déclaration d'achèvement est accompagnée d’un document établi par un contrôleur technique attestant que le maître d’ouvrage a tenu compte de ses avis sur le respect des règles de construction parasismiques et paracycloniques",04/12/2019
41,"Délimitation de cette partie des constructions",04/12/2019
42,"Demande de dérogation pour la création ou l’agrandissement de logements par surélévation d’un immeuble achevé depuis plus de 2 ans",04/12/2019
43,"Descriptif des moyens mis en oeuvre pour éviter toute atteinte au patrimoine protégé",04/12/2019
44,"Descriptif des moyens mis en oeuvre pour éviter toute atteinte aux parties conservées du bâtiment",04/12/2019
45,"Document graphique faisant apparaître l’état initial et l’état futur de chacun des éléments ou parties faisant l’objet de travaux",04/12/2019
46,"Document graphique faisant apparaître l’état initial et l’état futur de chacune des parties du bâtiment faisant l’objet des travaux",04/12/2019
47,"Document graphique permettant d’apprécier l’insertion du projet de construction dans son environnement",04/12/2019
48,"Document par lequel le demandeur s’engage à installer des dispositifs conformes aux dispositions reglementaires",04/12/2019
49,"Document attestant que la construction fait preuve d’exemplarité énergétique ou d’exemplarité environnementale ou est à énergie positive selon les critères définis par ces dispositions",04/12/2019
50,"Dossier d’autorisation d’exploitation commerciale",04/12/2019
51,"Dossier d’évaluation des incidences ou étude d’impact en tenant lieu selon la nature et/ou la situation du projet",04/12/2019
52,"Dossier d’évaluation des incidences",04/12/2019,30/06/2021
53,"Dossier destiné à l'établissement public du parc national",04/12/2019
54,"Dossier spécifique permettant de vérifier la conformité du projet avec les règles d’accessibilité aux personnes handicapées",04/12/2019
55,"Dossier spécifique permettant de vérifier la conformité du projet avec les règles de sécurité",04/12/2019
56,"Engagement du demandeur de conclure la convention prévue au 3° de l’article L.351-2 du code de la construction et de l’habitation",04/12/2019
57,"Estimation sommaire du coût foncier",04/12/2019
58,"Etude d’impact actualisée ainsi que les avis de l’autorité environnementale, des collectivités territoriales et leurs groupements intéressés par le projet selon la nature et/ou la situation du projet",04/12/2019
59,"Etude d’impact ou décision de dispense d’une telle étude selon la nature et/ou la situation du projet",04/12/2019
60,"Etude de sécurité",04/12/2019
61,"Extrait de la convention précisant le lieu du projet urbain partenarial et la durée d’exonération de la taxe d’aménagement",04/12/2019
62,"Formulaire attestant la prise en compte de la règlementation thermique et, le cas échéant, la réalisation de l’étude de faisabilité relative aux approvisionnements en énergie",04/12/2019
63,"Formulaire de déclaration de la redevance bureaux",04/12/2019
64,"Justificatif de dépôt de la demande d’autorisation spéciale au ministre chargé de l'aviation civile et du ministre de la défense",04/12/2019
65,"Justification de la date de la destruction, de la démolition ou du sinistre",04/12/2019
66,"Justification du dépôt de déclaration au titre de la législation relative aux Installations Classées pour la Protection de l’Environnement",04/12/2019
68,"Justification du dépôt de la demande de permis de démolir",04/12/2019
69,"Mention de la surface de plancher correspondante",04/12/2019
70,"Note précisant la nature de la ou des dérogations demandées par rapport au PLU",04/12/2019
71,"Note précisant la nature des travaux pour lesquels une dérogation est sollicitée et justifiant que ces travaux sont nécessaires pour permettre l’accessibilité du logement à des personnes handicapées",04/12/2019
72,"Notice complémentaire indiquant les matériaux utilisés et les modalités d’exécution des travaux",04/12/2019
73,"Notice décrivant le terrain et présentant le projet",04/12/2019
74,"Notice expliquant les raisons pour lesquelles la conservation du bâtiment ne peut plus être assurée en cas de démolition totale",04/12/2019
75,"Notice faisant apparaître les matériaux utilisés et les modalités d’exécution des travaux",04/12/2019,30/06/2021
76,"Notice précisant l’activité économique qui doit être exercée dans le bâtiment",04/12/2019
77,"Notice précisant la nature du commerce projeté et la surface de vente",04/12/2019
78,"Photographie du ou des bâtiments à démolir",04/12/2019
79,"Photographie permettant de situer le terrain dans l’environnement proche",04/12/2019
80,"Photographie permettant de situer le terrain dans le paysage lointain",04/12/2019
81,"Photographies des façades et toitures du bâtiment et de ses dispositions intérieures en cas de démolition totale",04/12/2019
82,"Pièces à joindre à une demande de permis de démolir, selon l’annexe ci-jointe",04/12/2019
83,"Plan de division du terrain",04/12/2019
84,"Plan de masse coté dans les 3 dimensions",04/12/2019
85,"Plan de masse des constructions à démolir ou s’il y a lieu à conserver",04/12/2019
86,"Plan de masse des constructions à édifier ou à modifier",04/12/2019
87,"Plan de situation permettant de localiser le terrain dans la commune",04/12/2019,30/06/2021
88,"Plan de situation du terrain",04/12/2019
89,"Plan de situation du terrain sur lequel sont réalisées les aires de stationnement et le plan des constructions et aménagements correspondants",04/12/2019
90,"Plan des façades et des toitures",04/12/2019
91,"Plan en coupe du terrain et de la construction",04/12/2019
92,"Plan sommaire des lieux indiquant, le cas échéant, les bâtiments de toute nature existant sur le terrain",04/12/2019
93,"Projet de constitution d’une association syndicale des futurs propriétaires",04/12/2019
94,"Promesse synallagmatique de concession ou d’acquisition",04/12/2019
95,"Récépissé de dépôt en préfecture de la demande d’autorisation à l'autorité chargée de la police de la sécurité",04/12/2019
96,"Récépissé de transmission du dossier à la commission départementale de la sécurité des transports de fonds",04/12/2019
97,"Représentation de l’aspect extérieur de la construction faisant apparaître les modifications projetées",04/12/2019
98,"Rescrit fiscal ",04/12/2019
99,"Tableau indiquant la proportion de logements de la taille minimale imposée par le plan local d’urbanisme ou par le document en tenant lieu",04/12/2019
100,"Tableau indiquant la surface de plancher des logements créés correspondant aux catégories de logements dont la construction sur le terrain est imposée par le plan local d’urbanisme ou le document d’urbanisme en tenant lieu",04/12/2019
101,"Tableau indiquant le nombre de logements familiaux et la part de ces logements familiaux correspondant à des logements locatifs sociaux hors logements financés avec un prêt locatif social",04/12/2019
102,"Plan du terrain",04/12/2019
103,"Note descriptive succincte",04/12/2019
104,"Attestations relatives aux accès",10/03/2020
105,"Descriptif des servitudes",10/03/2020
106,"Fiche de renseignement agricole",10/03/2020
107,"Justificatif relatif aux habitations proches des exploitations agricoles",10/03/2020
108,"Justificatif relatif à la création de logements de fonction",10/03/2020
109,"Résultat des études de sol demandées par le SPANC",10/03/2020
110,"Fiche de renseignement archéologique",10/03/2020
111,"Autre à préciser",10/03/2020
112,"Dossier destiné à l'établissement public du parc national",10/03/2020,30/06/2021
113,"Etude d’impact ou la décision de dispense d’une telle étude",10/03/2020,30/06/2021
114,"Etude d’impact actualisée ainsi que les avis de l’autorité environnementale, des collectivités territoriales et leurs groupements intéressés",10/03/2020,30/06/2021
115,"Dossier d’évaluation des incidences ou étude d’impact en tenant lieu",10/03/2020,30/06/2021
116,"Attestation de conformité du projet d’installation",10/03/2020,30/06/2021
117,"Copie de la lettre du préfet qui vous fait savoir que votre demande d’autorisation de défrichement est complète, si le défrichement est ou non soumis à reconnaissance de la situation et de l’état des terrains et si la demande doit ou non faire l’objet d’une enquête publique",10/03/2020,30/06/2021
118,"Notice décrivant le terrain et le projet d’aménagement prévu",10/03/2020
119,"Plan de l’état actuel du terrain à aménager et de ses abords",10/03/2020
120,"Plan de composition d’ensemble du projet coté dans les trois dimensions",10/03/2020
121,"Vues et coupes faisant apparaître la situation du projet dans le profil du terrain naturel",10/03/2020
122,"Programme et plans des travaux d’aménagement",10/03/2020
123,"Document graphique faisant apparaître une ou plusieurs hypothèses d’implantation des bâtiments",10/03/2020
124,"Projet de règlement s’il est envisagé d’apporter des compléments aux règles d’urbanisme en vigueur et, s'il ya lieu, pourcentage consacré aux logements sociaux en cas de réalisation d’un programme de logement",10/03/2020
125,"Formulaire complémentaire relatifs aux autres demandeurs",05/06/2020
126,"Attestation de la garantie d’achèvement des travaux",24/07/2020
127,"Engagement du lotisseur de constituer une association syndicale des acquéreurs de lots",24/07/2020
128,"Croquis et plan coté dans les trois dimensions faisant apparaître la ou les divisions projetées",24/07/2020
129,"Engagement d’exploiter le terrain selon le mode de gestion indiqué dans la demande",24/07/2020
130,"Photographies faisant apparaître l’ensemble des parties extérieures et intérieures du bâtiment adossées à l’immeuble classé",24/07/2020
131,"Descriptif des moyens mis en oeuvre pour éviter toute atteinte à l’immeuble classé",24/07/2020
132,"Rescrit fiscal",24/07/2020,30/06/2021
133,"Copie de la convention de projet urbain partenarial ",21/10/2020
134,"Déclaration des éléments nécessaires au calcul des impositions",21/10/2020
135,"Formulaire DOC 13407",21/10/2020
136,"Formulaire DAACT 13408",21/10/2020
137,"Attestation de l’accord du lotisseur pour un projet en cas de construction",26/04/2021
138,"Attestation établie par un bureau d’études certifié dans le domaine des sites et sols pollués pour un projet qui comporte des constructions pour un secteur d'information",26/04/2021
139,"Attestation établie par un bureau d’études certifié dans le domaine des sites et sols pollués  selon la nature et/ou la situation du projet sur un terrain ayant accueilli une installation classée",26/04/2021
140,"Attestation établie par un bureau d’études certifié dans le domaine des sites et sols pollués selon la nature et/ou la situation du projet pour un secteur d'information",26/04/2021
141,"Copie de la lettre du préfet qui vous fait savoir que votre demande d’autorisation de défrichement est complète selon la nature et/ou la situation du projet",26/04/2021
142,"Dossier d’évaluation des incidences ou étude d’impact en tenant lieu si votre projet comporte des constructions",26/04/2021
143,"Etude d’impact actualisée ainsi que les avis de l’autorité environnementale, des collectivités territoriales et leurs groupements intéressés si votre projet comporte des constructions",26/04/2021
144,"Etude d’impact ou décision de dispense d’une telle étude si votre projet comporte des constructions",26/04/2021
145,"Attestation de prise en compte de la règlementation thermique fournie avec la DAACT pour une construction ",26/04/2021
146,"Attestation de prise en compte de la règlementation thermique fournie avec la DAACT dans le cas d'une réhabilitation ",26/04/2021
147,"Attestation de conformité du projet d’installation d’assainissement non collectif pour un projet sans construction",26/04/2021
148,"Notice expliquant les raisons pour lesquelles la conservation du bâtiment ne peut plus être assurée en cas de démolition partielle",26/04/2021
149,"Photographies des façades et toitures du bâtiment et de ses dispositions intérieures en cas de démolition partielle",26/04/2021
150,"Formulaire attestant la prise en compte des performances énergétiques et environnementale et, le cas échéant, la réalisation de l'étude de faisabilité relative aux approvisionnements en énergie",27/09/2021
151,"Formulaire ERP 13824 travaux non soumis à PC",27/09/2021
152,"Formulaire ERP travaux soumis à PC",27/09/2021
153,"Demande de modification d’un permis délivré en cours de validité N°13411",06/01/2022
154,"Formulaire de demande de transfert de permis délivré en cours de validité N° 13412",06/01/2022
155,"Etude d’impact ou la décision de dispense d’une telle étude",06/01/2022
156,"Etude d’impact actualisée ainsi que les avis de l’autorité environnementale, des collectivités territoriales et leurs groupements intéressés par le projet",06/01/2022
157,"Formulaire attestant la prise en compte des exigences de performance énergétique et environnementale et, le cas échéant, la réalisation de l'étude de faisabilité relative aux approvisionnements en énergie en application des dispositions du code de la construction et de l'habitation",06/01/2022
158,"Attestation de la prise en compte des exigences de performance énergétique et environnementale prévue par le code de la construction et de l’habitation",06/01/2022
159,"Document contenant la mention et les éléments prévus par le code du tourisme",06/01/2022
160,"Demande de dérogation comprenant le document prévu par le code de la construction et de l'habitation attestant que la construction fait preuve d'exemplarité environnementale",01/07/2022
161,"Décision prise sur la demande de dérogation à l’obligation de raccordement à un réseau de chaleur et de froid prévue par le code de l’énergie",01/07/2022
162,"Récépissé de la demande d'enregistrement lorsqu'il s'agit d'une installation classée pour la protection de l'environnement pour laquelle une demande d'enregistrement a été déposée",01/01/2023
163,"Pièce demandée dans le cadre d'un document d'urbanisme",01/01/2023
164,"Formulaire DIA 10072",01/04/2023
165,"Plan cadastral",01/04/2023
166,"Règlement et cahier des charges du lotissement",01/04/2023
167,"Pouvoir ou mandat",01/04/2023
168,"Etat locatif précisant la nature du bail, le montant annuel hors charges du loyer, la date de prise d’effet et de fin de bail et le nom du locataire",01/04/2023
169,"Informations relatives aux installations soumises à autorisation ou à enregistrement au titre du code de l’environnement",01/04/2023
