idNom.int32(),libNom.string(),dtMiseEnPlace.date(02/01/2006),dtObsolescence.date(02/01/2006)
1,"En cours de dépôt",04/12/2019
2,"Déposé",04/12/2019
3,"Qualifié/Instruction en cours",04/12/2019
4,"Attente de pièces",04/12/2019
5,"Rejet pour incomplétude",04/12/2019
6,"Abandonné",04/12/2019
7,"Complet",04/12/2019
8,"Instruction terminée",04/12/2019
9,"Recours en cours",04/12/2019
10,"Décision retirée",04/12/2019
11,"Décision annulée",04/12/2019
12,"Procédure contradictoire en cours (type 1)",04/12/2019
13,"Traitement fiscal effectué",04/12/2019
14,"Titres émis",04/12/2019
15,"Procédure contradictoire en cours (type 2)",04/12/2019
16,"Rectification à effectuer",04/12/2019
17,"Décision prise - Rejet",04/12/2019
18,"Décision prise - Accord",04/12/2019
19,"Décision prise - Sursis à statuer",04/12/2019
20,"Décision prise - Refus",04/12/2019
21,"Décision prise - Accord - Pas de prescription préalable à satisfaire",20/01/2021
22,"Décision prise - Accord - Prescription(s) préalable(s) possible(s)",20/01/2021
23,"Décision prise - Accord - Prescription(s) préalable(s) à satisfaire",20/01/2021
24,"Décision prise - Accord - Prescription(s) préalable(s) satisfaite(s)",20/01/2021
25,"Attente de requalification",10/06/2021
