idNom.int32(),libNom.string(),dtMiseEnPlace.date(02/01/2006),dtObsolescence.date(02/01/2006)
1,"Proposition de lettre aux pétitionnaires",13/07/2021
2,"Proposition de décision",13/07/2021
3,"Consultation",13/07/2021
4,"Lettres émises par les DDT à transmettre aux pétitionnaires",01/09/2022
5,"Décisions signées par les préfets à transmettre aux pétitionnaires",01/09/2022