"idNom.int32()","libNom.string()","dtMiseEnPlace.date(02/01/2006)","dtObsolescence.date(02/01/2006)"
1,"Le maire",03/01/2020
2,"Le président de l’EPCI",04/01/2020
3,"Le préfet",05/01/2020
4,"Une juridiction administrative",06/01/2020
