[
  {
    "adressesStationnementsExternes": null,
    "amenagements": [
      {
        "attributsAmenagement": [
          {
            "hdDebutVersion": "2020-06-16T15:16:27.444Z",
            "idAttributAmenagement": "O19-LRL-JXN",
            "noVersion": 1
          }
        ],
        "hdDebutVersion": "2020-06-16T15:16:27.444Z",
        "idAmenagement": "KWE-0Q0-GW6",
        "noVersion": 1
      }
    ],
    "annexes": [
      {
        "hdDebutVersion": "2020-06-16T15:16:27.444Z",
        "idAnnexe": "71Z-393-K1Q",
        "noVersion": 1
      },
      {
        "hdDebutVersion": "2020-06-16T15:16:27.444Z",
        "idAnnexe": "YX3-2RD-318",
        "noVersion": 1
      }
    ],
    "batiments": [
      {
        "hdDebutVersion": "2020-06-16T15:16:27.444Z",
        "idBatiment": "R17-5R5-8XO",
        "noVersion": 1
      }
    ],
    "equipementsPrives": [
      {
        "hdDebutVersion": "2020-06-16T15:16:27.444Z",
        "idEquipPrive": "91D-YVY-G14",
        "noVersion": 1
      }
    ],
    "equipementsPublics": null,
    "erreurs": null,
    "hdDebutVersion": "2020-06-16T15:16:27.444Z",
    "idDossier": "7XY-KEL-0WZ",
    "infoFiscalesOuStatistiquesAgregees": [
      {
        "hdDebutVersion": "2020-06-16T15:16:27.444Z",
        "idInfoFiscaleOuStatistique": "71M-Y4Y-Z1Z",
        "noVersion": 1
      },
      {
        "hdDebutVersion": "2020-06-16T15:16:27.444Z",
        "idInfoFiscaleOuStatistique": "7XY-KEK-0WZ",
        "noVersion": 1
      },
      {
        "hdDebutVersion": "2020-06-16T15:16:27.444Z",
        "idInfoFiscaleOuStatistique": "E10-6R6-81Z",
        "noVersion": 1
      },
      {
        "hdDebutVersion": "2020-06-16T15:16:27.444Z",
        "idInfoFiscaleOuStatistique": "515-YRY-41L",
        "noVersion": 1
      }
    ],
    "noVersion": 1,
    "personnes": [
      {
        "adresseCourante": {
          "hdDebutVersion": "2020-06-16T15:16:27.444Z",
          "idAdresse": "515-YRK-41L",
          "noVersion": 1
        },
        "adresseFuture": null,
        "coordonnees": [
          {
            "hdDebutVersion": "2020-06-16T15:16:27.444Z",
            "idCoordonnee": "KWE-0QO-GW6",
            "noVersion": 1
          }
        ],
        "hdDebutVersion": "2020-06-16T15:16:27.444Z",
        "idPersonne": "E10-6R7-81Z",
        "noVersion": 1,
        "roles": [
          {
            "hdDebutVersion": "2020-06-16T15:16:27.444Z",
            "idRole": "O19-LRV-JXN",
            "noVersion": 1
          }
        ]
      },
      {
        "adresseCourante": {
          "hdDebutVersion": "2020-06-16T15:16:27.444Z",
          "idAdresse": "R17-5RG-8XO",
          "noVersion": 1
        },
        "adresseFuture": null,
        "coordonnees": [],
        "hdDebutVersion": "2020-06-16T15:16:27.444Z",
        "idPersonne": "91D-YVK-G14",
        "noVersion": 1,
        "roles": [
          {
            "hdDebutVersion": "2020-06-16T15:16:27.444Z",
            "idRole": "71Z-39R-K1Q",
            "noVersion": 1
          }
        ]
      }
    ],
    "surfInstructionAgregees": [
      {
        "hdDebutVersion": "2020-06-16T15:16:27.444Z",
        "idSurfaceInstruction": "RXQ-282-21Q",
        "noVersion": 1
      },
      {
        "hdDebutVersion": "2020-06-16T15:16:27.444Z",
        "idSurfaceInstruction": "Y1L-GKG-OXP",
        "noVersion": 1
      },
      {
        "hdDebutVersion": "2020-06-16T15:16:27.444Z",
        "idSurfaceInstruction": "MWJ-484-LXP",
        "noVersion": 1
      },
      {
        "hdDebutVersion": "2020-06-16T15:16:27.444Z",
        "idSurfaceInstruction": "LX6-0R0-YX9",
        "noVersion": 1
      },
      {
        "hdDebutVersion": "2020-06-16T15:16:27.444Z",
        "idSurfaceInstruction": "8XP-2R2-LXP",
        "noVersion": 1
      },
      {
        "hdDebutVersion": "2020-06-16T15:16:27.444Z",
        "idSurfaceInstruction": "YW8-VMV-2W3",
        "noVersion": 1
      },
      {
        "hdDebutVersion": "2020-06-16T15:16:27.444Z",
        "idSurfaceInstruction": "2XN-080-9XJ",
        "noVersion": 1
      },
      {
        "hdDebutVersion": "2020-06-16T15:16:27.444Z",
        "idSurfaceInstruction": "71O-585-3XM",
        "noVersion": 1
      },
      {
        "hdDebutVersion": "2020-06-16T15:16:27.444Z",
        "idSurfaceInstruction": "91K-N2N-41J",
        "noVersion": 1
      },
      {
        "hdDebutVersion": "2020-06-16T15:16:27.444Z",
        "idSurfaceInstruction": "5WR-4N4-7WN",
        "noVersion": 1
      },
      {
        "hdDebutVersion": "2020-06-16T15:16:27.444Z",
        "idSurfaceInstruction": "VX2-JRJ-OXE",
        "noVersion": 1
      },
      {
        "hdDebutVersion": "2020-06-16T15:16:27.444Z",
        "idSurfaceInstruction": "4X4-KRK-R1Y",
        "noVersion": 1
      }
    ],
    "terrains": [
      {
        "adresses": [
          {
            "hdDebutVersion": "2020-06-16T15:16:27.444Z",
            "idAdresse": "EWV-JYJ-9WY",
            "noVersion": 1
          }
        ],
        "hdDebutVersion": "2020-06-16T15:16:27.444Z",
        "idTerrain": "YX3-2R2-318",
        "noVersion": 1,
        "refCadastrales": [
          {
            "hdDebutVersion": "2020-06-16T15:16:27.444Z",
            "idReferenceCadastrale": "GXG-MJM-EX3",
            "noVersion": 1
          }
        ]
      }
    ]
  }
]