{
  "dossier": {
    "a_qualifier": "t",
    "accord_tacite": "Non",
    "annee": "18",
    "autorisation_contestee": "",
    "autorite_competente": "2",
    "autorite_competente_code": "ETAT",
    "avis_decision": "8",
    "contrevenants": "",
    "ctx_reference_dsj": "",
    "ctx_reference_sagace": "",
    "date_achevement": "",
    "date_affichage": "",
    "date_ait": "",
    "date_audience": "",
    "date_chantier": "",
    "date_cloture_instruction": "",
    "date_complet": "2018-01-01",
    "date_conformite": "",
    "date_contradictoire": "",
    "date_decision": "2018-02-01",
    "date_demande": "2018-01-01",
    "date_depot": "2018-01-01",
    "date_dernier_depot": "2018-01-01",
    "date_derniere_visite": "",
    "date_limite": "2018-02-01",
    "date_limite_incompletude": "",
    "date_modification": "2020-07-01",
    "date_notification_delai": "2018-02-01",
    "date_premiere_visite": "",
    "date_rejet": "",
    "date_retour_contradictoire": "",
    "date_transmission_parquet": "",
    "date_validite": "2021-02-01",
    "delai": "1",
    "delai_incompletude": "",
    "depot_electronique": "f",
    "description": "",
    "description_projet": "",
    "division": "2",
    "dossier": "DP0132011800001",
    "dossier_arrondissement": "",
    "dossier_autorisation": "DP0132011800001",
    "dossier_autorisation_libelle": "DP 013201 18 00001",
    "dossier_autorisation_type_code": "DP",
    "dossier_autorisation_type_detaille": "DECLARATION PREALABLE",
    "dossier_autorisation_type_detaille_code": "DP",
    "dossier_instruction_type": "21",
    "dossier_instruction_type_code": "P",
    "dossier_libelle": "DP 013201 18 00001",
    "dossier_petitionnaire": "Mamie Couture La Haute Couture",
    "dossier_petitionnaires": "",
    "dossier_suffixe": "",
    "dt_ctx_infraction": "f",
    "dt_ctx_regularisable": "f",
    "dt_ctx_synthese_anr": "",
    "dt_ctx_synthese_nti": "",
    "duree_validite": "36",
    "enjeu_ctx": "",
    "enjeu_erp": "f",
    "enjeu_urba": "f",
    "erp": "f",
    "etat": "accepter",
    "etat_pendant_incompletude": "",
    "evenement_suivant_tacite": "218",
    "evenement_suivant_tacite_incompletude": "",
    "geom": "",
    "geom1": "",
    "hash_sitadel": "",
    "incomplet_notifie": "f",
    "incompletude": "f",
    "insee": "13201",
    "instructeur": "2",
    "instructeur_2": "",
    "interface_referentiel_erp": "f",
    "numero_versement_archive": "",
    "om_collectivite": "4",
    "parcelle_temporaire": "f",
    "quartier": "",
    "requerants": "",
    "tax_mtn_part_commu": "",
    "tax_mtn_part_commu_sans_exo": "",
    "tax_mtn_part_depart": "",
    "tax_mtn_part_depart_sans_exo": "",
    "tax_mtn_part_reg": "",
    "tax_mtn_part_reg_sans_exo": "",
    "tax_mtn_rap": "",
    "tax_mtn_rap_sans_exo": "",
    "tax_mtn_total": "",
    "tax_mtn_total_sans_exo": "",
    "tax_secteur": "",
    "terrain": "888GG8888 43 route de la soie 95000",
    "terrain_adresse_bp": "",
    "terrain_adresse_cedex": "",
    "terrain_adresse_code_postal": "95000",
    "terrain_adresse_lieu_dit": "",
    "terrain_adresse_localite": "Pontoise",
    "terrain_adresse_voie": "route de la soie",
    "terrain_adresse_voie_numero": "43",
    "terrain_references_cadastrales": "888GG8888;",
    "terrain_superficie": "600",
    "version": "0",
    "version_clos": "0"
  },
  "external_uid": {
    "dossier": "",
    "dossier_autorisation": ""
  },
  "instruction": {
    "date_envoi_signature": "2018-02-01",
    "date_retour_rar": "2018-02-01",
    "date_retour_signature": "2018-02-01",
    "om_fichier_instruction": "8c0226ca6820e062a15df8c594ea2b4a",
    "path": "localhost/openads/app/index.php?module=form&snippet=file&obj=instruction&champ=om_fichier_instruction&id=6",
    "tacite": "f"
  },
  "task": {
    "object_id": "DP0132011800001",
    "state": "new",
    "task": "16",
    "timestamp_log": {
      "creation_date": "2020-07-01 17:23:17"
    },
    "type": "decision_DI"
  }
}