{
  "dossier": {
    "a_qualifier": "t",
    "accord_tacite": "Non",
    "annee": "20",
    "autorisation_contestee": "",
    "autorite_competente": "2",
    "autorite_competente_code": "ETAT",
    "avis_decision": "6",
    "contrevenants": "",
    "ctx_reference_dsj": "",
    "ctx_reference_sagace": "",
    "date_achevement": "",
    "date_affichage": "",
    "date_ait": "",
    "date_audience": "",
    "date_chantier": "",
    "date_cloture_instruction": "",
    "date_complet": "2020-01-01",
    "date_conformite": "",
    "date_contradictoire": "",
    "date_decision": "2020-02-01",
    "date_demande": "2020-01-01",
    "date_depot": "2020-01-01",
    "date_dernier_depot": "2020-01-01",
    "date_derniere_visite": "",
    "date_limite": "2020-03-01",
    "date_limite_incompletude": "",
    "date_modification": "2020-07-01",
    "date_notification_delai": "2020-02-01",
    "date_premiere_visite": "",
    "date_rejet": "",
    "date_retour_contradictoire": "",
    "date_transmission_parquet": "",
    "date_validite": "",
    "delai": "2",
    "delai_incompletude": "",
    "depot_electronique": "f",
    "description": "",
    "description_projet": "Construction nouvelle d'une maison individuelle",
    "division": "1",
    "dossier": "PC0130012000001",
    "dossier_arrondissement": "",
    "dossier_autorisation": "PC0130012000001",
    "dossier_autorisation_libelle": "PC 013001 20 00001",
    "dossier_autorisation_type_code": "PC",
    "dossier_autorisation_type_detaille": "PERMIS DE CONSTRUIRE MAISON INDIVIDUELLE",
    "dossier_autorisation_type_detaille_code": "PI",
    "dossier_instruction_type": "1",
    "dossier_instruction_type_code": "P",
    "dossier_libelle": "PC 013001 20 00001",
    "dossier_petitionnaire": "Mendes Shawn",
    "dossier_petitionnaires": "",
    "dossier_suffixe": "",
    "dt_ctx_infraction": "f",
    "dt_ctx_regularisable": "f",
    "dt_ctx_synthese_anr": "",
    "dt_ctx_synthese_nti": "",
    "duree_validite": "36",
    "enjeu_ctx": "",
    "enjeu_erp": "f",
    "enjeu_urba": "f",
    "erp": "f",
    "etat": "refuse",
    "etat_pendant_incompletude": "",
    "evenement_suivant_tacite": "117",
    "evenement_suivant_tacite_incompletude": "",
    "geom": "",
    "geom1": "",
    "hash_sitadel": "",
    "incomplet_notifie": "f",
    "incompletude": "f",
    "insee": "13001",
    "instructeur": "1",
    "instructeur_2": "",
    "interface_referentiel_erp": "f",
    "numero_versement_archive": "",
    "om_collectivite": "3",
    "parcelle_temporaire": "f",
    "quartier": "",
    "requerants": "",
    "tax_mtn_part_commu": "",
    "tax_mtn_part_commu_sans_exo": "",
    "tax_mtn_part_depart": "",
    "tax_mtn_part_depart_sans_exo": "",
    "tax_mtn_part_reg": "",
    "tax_mtn_part_reg_sans_exo": "",
    "tax_mtn_rap": "",
    "tax_mtn_rap_sans_exo": "",
    "tax_mtn_total": "",
    "tax_mtn_total_sans_exo": "",
    "tax_secteur": "",
    "terrain": "888ST9876 965 Rue du chocolat 21000",
    "terrain_adresse_bp": "",
    "terrain_adresse_cedex": "",
    "terrain_adresse_code_postal": "21000",
    "terrain_adresse_lieu_dit": "",
    "terrain_adresse_localite": "Dijon",
    "terrain_adresse_voie": "Rue du chocolat",
    "terrain_adresse_voie_numero": "965",
    "terrain_references_cadastrales": "888ST9876;",
    "terrain_superficie": "1500",
    "version": "0",
    "version_clos": "0"
  },
  "external_uid": {
    "dossier": "",
    "dossier_autorisation": ""
  },
  "instruction": {
    "date_envoi_signature": "2020-02-01",
    "date_retour_rar": "2020-02-01",
    "date_retour_signature": "2020-02-01",
    "om_fichier_instruction": "5317751d8167b28c6d247b88e12870f5",
    "path": "localhost/openads/app/index.php?module=form&snippet=file&obj=instruction&champ=om_fichier_instruction&id=11",
    "tacite": "f"
  },
  "task": {
    "object_id": "PC0130012000001",
    "state": "new",
    "task": "17",
    "timestamp_log": {
      "0": {
        "modification_date": "2020-07-01 17:24:39",
        "prev_state": "new",
        "state": "new"
      },
      "creation_date": "2020-07-01 17:24:13"
    },
    "type": "decision_DI"
  }
}