{
  "architecte": null,
  "demandeur": {
    "2": {
      "bp": "",
      "cedex": "",
      "code_postal": "21000",
      "commerciale": "f",
      "complement": "",
      "courriel": "",
      "demandeur": "2",
      "division_territoriale": "",
      "fax": "",
      "frequent": "f",
      "indicatif": "",
      "lieu_dit": "Montigny-Mornay-Villeneuve-sur-Vingean",
      "localite": "Dijon",
      "notification": "f",
      "numero": "45",
      "om_collectivite": "3",
      "particulier_civilite": "4",
      "particulier_commune_naissance": "Dijon",
      "particulier_date_naissance": "1980-08-15",
      "particulier_departement_naissance": "021",
      "particulier_nom": "Mendes",
      "particulier_pays_naissance": "France",
      "particulier_prenom": "Shawn",
      "pays": "France",
      "personne_morale_categorie_juridique": "",
      "personne_morale_civilite": "",
      "personne_morale_denomination": "",
      "personne_morale_nom": "",
      "personne_morale_prenom": "",
      "personne_morale_raison_sociale": "",
      "personne_morale_siret": "",
      "petitionnaire_principal": "t",
      "qualite": "particulier",
      "telephone_fixe": "0867543237",
      "telephone_mobile": "",
      "type_demandeur": "petitionnaire",
      "voie": "rue de la moutarde"
    },
    "3": {
      "bp": "",
      "cedex": "",
      "code_postal": "21000",
      "commerciale": "f",
      "complement": "",
      "courriel": "",
      "demandeur": "3",
      "division_territoriale": "",
      "fax": "",
      "frequent": "f",
      "indicatif": "",
      "lieu_dit": "",
      "localite": "Dijon",
      "notification": "f",
      "numero": "73",
      "om_collectivite": "3",
      "particulier_civilite": "4",
      "particulier_commune_naissance": "",
      "particulier_date_naissance": "",
      "particulier_departement_naissance": "",
      "particulier_nom": "Lemoine",
      "particulier_pays_naissance": "",
      "particulier_prenom": "Gilles",
      "pays": "France",
      "personne_morale_categorie_juridique": "",
      "personne_morale_civilite": "",
      "personne_morale_denomination": "",
      "personne_morale_nom": "",
      "personne_morale_prenom": "",
      "personne_morale_raison_sociale": "",
      "personne_morale_siret": "",
      "petitionnaire_principal": "f",
      "qualite": "particulier",
      "telephone_fixe": "",
      "telephone_mobile": "",
      "type_demandeur": "proprietaire",
      "voie": "rue des voies du bois"
    }
  },
  "donnees_techniques": {
    "architecte": "",
    "cerfa": "150",
    "co_abo_monu_hist": "f",
    "co_anx_abri": "f",
    "co_anx_autr": "f",
    "co_anx_autr_desc": "",
    "co_anx_gara": "t",
    "co_anx_pisc": "t",
    "co_anx_veran": "f",
    "co_archi_recours": "f",
    "co_bat_niv_nb": "",
    "co_cstr_exist": "f",
    "co_cstr_nouv": "t",
    "co_elec_tension": "300",
    "co_fin_aa": "f",
    "co_fin_aa_nb": "",
    "co_fin_autr": "",
    "co_fin_autr_nb": "",
    "co_fin_lls": "f",
    "co_fin_lls_nb": "",
    "co_fin_ptz": "f",
    "co_fin_ptz_nb": "",
    "co_log_1p_nb": "",
    "co_log_2p_nb": "",
    "co_log_3p_nb": "",
    "co_log_4p_nb": "",
    "co_log_5p_nb": "",
    "co_log_6p_nb": "",
    "co_mais_contrat_ind": "f",
    "co_mais_niv_nb": "2",
    "co_mais_piece_nb": "9",
    "co_peri_site_patri_remar": "f",
    "co_projet_desc": "Construction nouvelle d'une maison individuelle",
    "co_resid_hand": "f",
    "co_statio_adr": "",
    "co_statio_apr_nb": "",
    "co_statio_avt_nb": "",
    "co_statio_comm_cin_surf": "",
    "co_statio_place_nb": "",
    "co_statio_tot_shob": "",
    "co_statio_tot_surf": "",
    "co_tot_ind_nb": "",
    "co_tot_log_nb": "",
    "co_trx_exten": "f",
    "co_trx_nivsup": "f",
    "co_trx_surelev": "f",
    "co_uti_loc": "f",
    "co_uti_pers": "f",
    "co_uti_princ": "f",
    "co_uti_secon": "t",
    "co_uti_vente": "f",
    "code_cnil": "f",
    "daact_date": "",
    "daact_date_chgmt_dest": "",
    "daact_nb_log": "",
    "daact_nb_log_aa": "",
    "daact_nb_log_autre": "",
    "daact_nb_log_coll": "",
    "daact_nb_log_indiv": "",
    "daact_nb_log_lls": "",
    "daact_nb_log_ptz": "",
    "daact_surf": "",
    "daact_tot_trav": "f",
    "daact_tranche_trav": "f",
    "daact_tranche_trav_desc": "",
    "dm_constr_dates": "",
    "dm_partiel": "f",
    "dm_projet_desc": "",
    "dm_tot_log_nb": "",
    "dm_total": "f",
    "doc_date": "",
    "doc_nb_log": "",
    "doc_nb_log_aa": "",
    "doc_nb_log_autre": "",
    "doc_nb_log_coll": "",
    "doc_nb_log_indiv": "",
    "doc_nb_log_lls": "",
    "doc_nb_log_ptz": "",
    "doc_surf": "",
    "doc_tot_trav": "f",
    "doc_tranche_trav": "f",
    "doc_tranche_trav_desc": "",
    "donnees_techniques": "4",
    "exo_facul_1": "f",
    "exo_facul_2": "f",
    "exo_facul_3": "f",
    "exo_facul_4": "f",
    "exo_facul_5": "f",
    "exo_facul_6": "f",
    "exo_facul_7": "f",
    "exo_facul_8": "f",
    "exo_facul_9": "f",
    "exo_rap_1": "f",
    "exo_rap_2": "f",
    "exo_rap_3": "f",
    "exo_rap_4": "f",
    "exo_rap_5": "f",
    "exo_rap_6": "f",
    "exo_rap_7": "f",
    "exo_rap_8": "f",
    "exo_ta_1": "f",
    "exo_ta_2": "f",
    "exo_ta_3": "f",
    "exo_ta_4": "f",
    "exo_ta_5": "f",
    "exo_ta_6": "f",
    "exo_ta_7": "f",
    "exo_ta_8": "f",
    "exo_ta_9": "f",
    "mtn_exo_rap": "",
    "mtn_exo_ta_part_commu": "",
    "mtn_exo_ta_part_depart": "",
    "mtn_exo_ta_part_reg": "",
    "su_avt_shon1": "0",
    "su_avt_shon2": "",
    "su_avt_shon3": "",
    "su_avt_shon4": "",
    "su_avt_shon5": "",
    "su_avt_shon6": "",
    "su_avt_shon7": "",
    "su_avt_shon8": "",
    "su_avt_shon9": "",
    "su_avt_shon_tot": "0",
    "su_chge_shon1": "0",
    "su_chge_shon2": "",
    "su_chge_shon3": "",
    "su_chge_shon4": "",
    "su_chge_shon5": "",
    "su_chge_shon6": "",
    "su_chge_shon7": "",
    "su_chge_shon8": "",
    "su_chge_shon9": "",
    "su_chge_shon_tot": "0",
    "su_cstr_shon1": "350",
    "su_cstr_shon2": "",
    "su_cstr_shon3": "",
    "su_cstr_shon4": "",
    "su_cstr_shon5": "",
    "su_cstr_shon6": "",
    "su_cstr_shon7": "",
    "su_cstr_shon8": "",
    "su_cstr_shon9": "",
    "su_cstr_shon_tot": "350",
    "su_demo_shon1": "0",
    "su_demo_shon2": "",
    "su_demo_shon3": "",
    "su_demo_shon4": "",
    "su_demo_shon5": "",
    "su_demo_shon6": "",
    "su_demo_shon7": "",
    "su_demo_shon8": "",
    "su_demo_shon9": "",
    "su_demo_shon_tot": "0",
    "su_sup_shon1": "0",
    "su_sup_shon2": "",
    "su_sup_shon3": "",
    "su_sup_shon4": "",
    "su_sup_shon5": "",
    "su_sup_shon6": "",
    "su_sup_shon7": "",
    "su_sup_shon8": "",
    "su_sup_shon9": "",
    "su_sup_shon_tot": "0",
    "su_tot_shon1": "350",
    "su_tot_shon2": "",
    "su_tot_shon3": "",
    "su_tot_shon4": "",
    "su_tot_shon5": "",
    "su_tot_shon6": "",
    "su_tot_shon7": "",
    "su_tot_shon8": "",
    "su_tot_shon9": "",
    "su_tot_shon_tot": "350",
    "tax_am_statio_ext_arch": "0",
    "tax_am_statio_ext_cr": "2",
    "tax_comm_nb": "",
    "tax_desc": "rien a signaler",
    "tax_empl_hll_nb_cr": "",
    "tax_empl_ten_carav_mobil_nb_cr": "",
    "tax_eol_haut_nb_cr": "",
    "tax_ext_desc": "",
    "tax_ext_pret": "f",
    "tax_log_ap_trvx_nb": "1",
    "tax_log_exist_nb": "0",
    "tax_monu_hist": "f",
    "tax_pann_volt_sup_cr": "600",
    "tax_statut_info": "Déclaré",
    "tax_su_heber_log_nb1": "",
    "tax_su_heber_log_nb2": "",
    "tax_su_heber_log_nb3": "",
    "tax_su_heber_surf1": "",
    "tax_su_heber_surf2": "",
    "tax_su_heber_surf3": "",
    "tax_su_heber_surf_stat1": "",
    "tax_su_heber_surf_stat2": "",
    "tax_su_heber_surf_stat3": "",
    "tax_su_non_habit_surf1": "",
    "tax_su_non_habit_surf2": "",
    "tax_su_non_habit_surf3": "",
    "tax_su_non_habit_surf4": "",
    "tax_su_non_habit_surf5": "",
    "tax_su_non_habit_surf6": "",
    "tax_su_non_habit_surf7": "",
    "tax_su_non_habit_surf_stat1": "",
    "tax_su_non_habit_surf_stat2": "",
    "tax_su_non_habit_surf_stat3": "",
    "tax_su_non_habit_surf_stat4": "",
    "tax_su_non_habit_surf_stat5": "",
    "tax_su_non_habit_surf_stat6": "",
    "tax_su_non_habit_surf_stat7": "",
    "tax_su_parc_statio_expl_comm_surf": "",
    "tax_su_princ_log_nb1": "1",
    "tax_su_princ_log_nb2": "",
    "tax_su_princ_log_nb3": "",
    "tax_su_princ_log_nb4": "",
    "tax_su_princ_surf1": "350",
    "tax_su_princ_surf2": "",
    "tax_su_princ_surf3": "",
    "tax_su_princ_surf4": "",
    "tax_su_princ_surf_stat1": "10",
    "tax_su_princ_surf_stat2": "",
    "tax_su_princ_surf_stat3": "",
    "tax_su_princ_surf_stat4": "",
    "tax_su_secon_log_nb": "",
    "tax_su_secon_surf": "",
    "tax_su_secon_surf_stat": "",
    "tax_su_tot_log_nb": "",
    "tax_su_tot_surf": "",
    "tax_su_tot_surf_stat": "",
    "tax_sup_bass_pisc_cr": "40",
    "tax_surf_loc_arch": "3",
    "tax_surf_loc_stat": "10",
    "tax_surf_pisc_arch": "4",
    "tax_surf_tax_exist_cons": "0",
    "tax_surf_tot_cstr": "350",
    "tax_trx_presc_ppr": "f",
    "terr_juri_afu": "oui",
    "terr_juri_desc": "",
    "terr_juri_lot": "oui",
    "terr_juri_oin": "oui",
    "terr_juri_pup": "oui",
    "terr_juri_titul": "oui",
    "terr_juri_zac": "oui",
    "vsd_const_sxist_non_dem_surf": "0",
    "vsd_rescr_fisc": "2019-12-12",
    "vsd_surf_planch_smd": "t",
    "vsd_unit_fonc_constr_sup": "500",
    "vsd_unit_fonc_sup": "600",
    "vsd_val_terr": "10"
  },
  "dossier": {
    "a_qualifier": "t",
    "accord_tacite": "Non",
    "annee": "20",
    "autorisation_contestee": "",
    "autorite_competente": "2",
    "autorite_competente_code": "ETAT",
    "avis_decision": "",
    "contrevenants": "",
    "ctx_reference_dsj": "",
    "ctx_reference_sagace": "",
    "date_achevement": "",
    "date_affichage": "",
    "date_ait": "",
    "date_audience": "",
    "date_chantier": "",
    "date_cloture_instruction": "",
    "date_complet": "2020-01-01",
    "date_conformite": "",
    "date_contradictoire": "",
    "date_decision": "",
    "date_demande": "2020-01-01",
    "date_depot": "2020-01-01",
    "date_dernier_depot": "2020-01-01",
    "date_derniere_visite": "",
    "date_limite": "2020-03-01",
    "date_limite_incompletude": "",
    "date_modification": "2020-06-29",
    "date_notification_delai": "2020-02-01",
    "date_premiere_visite": "",
    "date_rejet": "",
    "date_retour_contradictoire": "",
    "date_transmission_parquet": "",
    "date_validite": "",
    "delai": "2",
    "delai_incompletude": "",
    "depot_electronique": "f",
    "description": "",
    "description_projet": "Construction nouvelle d'une maison individuelle",
    "division": "1",
    "dossier": "PC0130012000001",
    "dossier_arrondissement": "",
    "dossier_autorisation": "PC0130012000001",
    "dossier_autorisation_libelle": "PC 013001 20 00001",
    "dossier_autorisation_type_code": "PC",
    "dossier_autorisation_type_detaille": "PERMIS DE CONSTRUIRE MAISON INDIVIDUELLE",
    "dossier_autorisation_type_detaille_code": "PI",
    "dossier_instruction_type": "1",
    "dossier_instruction_type_code": "P",
    "dossier_libelle": "PC 013001 20 00001",
    "dossier_petitionnaire": "Mendes Shawn",
    "dossier_petitionnaires": "",
    "dossier_suffixe": "",
    "dt_ctx_infraction": "f",
    "dt_ctx_regularisable": "f",
    "dt_ctx_synthese_anr": "",
    "dt_ctx_synthese_nti": "",
    "duree_validite": "36",
    "enjeu_ctx": "",
    "enjeu_erp": "f",
    "enjeu_urba": "f",
    "erp": "f",
    "etat": "notifie_etat",
    "etat_pendant_incompletude": "",
    "evenement_suivant_tacite": "117",
    "evenement_suivant_tacite_incompletude": "",
    "geom": "",
    "geom1": "",
    "hash_sitadel": "",
    "incomplet_notifie": "f",
    "incompletude": "f",
    "insee": "13001",
    "instructeur": "1",
    "instructeur_2": "",
    "interface_referentiel_erp": "f",
    "numero_versement_archive": "",
    "om_collectivite": "3",
    "parcelle_temporaire": "f",
    "quartier": "",
    "requerants": "",
    "tax_mtn_part_commu": "",
    "tax_mtn_part_commu_sans_exo": "",
    "tax_mtn_part_depart": "",
    "tax_mtn_part_depart_sans_exo": "",
    "tax_mtn_part_reg": "",
    "tax_mtn_part_reg_sans_exo": "",
    "tax_mtn_rap": "",
    "tax_mtn_rap_sans_exo": "",
    "tax_mtn_total": "",
    "tax_mtn_total_sans_exo": "",
    "tax_secteur": "",
    "terrain": "888ST9876 965 Rue du chocolat 21000",
    "terrain_adresse_bp": "",
    "terrain_adresse_cedex": "",
    "terrain_adresse_code_postal": "21000",
    "terrain_adresse_lieu_dit": "",
    "terrain_adresse_localite": "Dijon",
    "terrain_adresse_voie": "Rue du chocolat",
    "terrain_adresse_voie_numero": "965",
    "terrain_references_cadastrales": "888ST9876;",
    "terrain_superficie": "1500",
    "version": "0",
    "version_clos": ""
  },
  "dossier_parcelle": {
    "2": {
      "dossier_parcelle": "2",
      "libelle": "888ST9876",
      "no_ordre": 1
    }
  },
  "external_uid": {
    "dossier": "",
    "dossier_autorisation": ""
  },
  "task": {
    "object_id": "PC0130012000001",
    "state": "new",
    "task": "7",
    "timestamp_log": {
      "creation_date": "2020-06-29 16:31:47"
    },
    "type": "creation_DI"
  }
}