{
  "1": {
    "idNom": 3,
    "libNom": "Défavorable"
  },
  "2": {
    "idNom": 1,
    "libNom": "Favorable"
  },
  "3": {
    "idNom": 2,
    "libNom": "Favorable assorti d’une ou plusieurs prescriptions"
  },
  "4": {
    "idNom": 0,
    "libNom": "Not mapped  : Tacite in openADS"
  },
  "5": {
    "idNom": 6,
    "libNom": "Pas d’avis - à motiver dans la partie Fondement de l’avis"
  },
  "6": {
    "idNom": 4,
    "libNom": "Pas d’avis car consultation sans objet"
  },
  "7": {
    "idNom": 5,
    "libNom": "Pas d’avis suite à déclaration d’incomplétude du dossier"
  }
}