{
  "9": {
    "idNom": 9,
    "libNom": "Accord du gestionnaire du domaine pour engager la procédure d’autorisation d’occupation temporaire du domaine public"
  },
  "14": {
    "idNom": 14,
    "libNom": "Attestation de conformité du projet d’installation"
  },
  "47": {
    "idNom": 47,
    "libNom": "Document graphique permettant d’apprécier l’insertion du projet de construction dans son environnement"
  },
  "11": {
    "idNom": 11,
    "libNom": "Attestation assurant le respect des règles d’hygiène, de sécurité, de satisfaction des besoins en eau, assainissement et électricité"
  },
  "15": {
    "idNom": 15,
    "libNom": "Attestation de l’accord du lotisseur"
  },
  "25": {
    "idNom": 25,
    "libNom": "Attestation établie par un bureau d’études certifié dans le domaine des sites et sols pollués, ou équivalent, garantissant que les mesures de gestion de la pollution au regard du nouvel usage du terrain projeté ont été prise en compte dans la conception du projet"
  },
  "29": {
    "idNom": 29,
    "libNom": "Certificat fourni par le lotisseur"
  },
  "55": {
    "idNom": 55,
    "libNom": "Dossier spécifique permettant de vérifier la conformité du projet avec les règles de sécurité prévues par l’article R. 111-19-17 b) du code de la construction et de l’habitation"
  },
  "56": {
    "idNom": 56,
    "libNom": "Engagement du demandeur de conclure la convention prévue au 3° de l’article L.351-2 du code de la construction et de l’habitation"
  },
  "61": {
    "idNom": 61,
    "libNom": "Extrait de la convention précisant le lieu du projet urbain partenarial et la durée d’exonération de la taxe d’aménagement"
  },
  "2": {
    "idNom": 2,
    "libNom": "Formulaire PD 13405 06"
  },
  "3": {
    "idNom": 3,
    "libNom": "Formulaire PCMI 13406 07"
  },
  "10": {
    "idNom": 10,
    "libNom": "Analyse de compatibilité du projet avec la canalisation du point de vue de la sécurité des personnes, prévue à l’art. R. 555-31 du code de l’environnement"
  },
  "22": {
    "idNom": 22,
    "libNom": "Attestation de paiement d’une redevance d’archéologie préventive au titre de la réalisation d’un diagnostic suite à une demande anticipée de prescription archéologique ou au titre de la loi du 1er août 2003 relative à l’archéologie préventive pour les installations classées"
  },
  "31": {
    "idNom": 31,
    "libNom": "Convention entre la commune ou l’établissement public et vous qui fixe votre participation au coût des équipements de la zone"
  },
  "39": {
    "idNom": 39,
    "libNom": "Copie du contrat ou de la décision judiciaire relative à l’institution de ces servitudes"
  },
  "53": {
    "idNom": 53,
    "libNom": "Dossier prévu au II de l’article R. 331-19 du code de l’environnement"
  },
  "58": {
    "idNom": 58,
    "libNom": "Etude d’impact actualisée ainsi que les avis de l’autorité environnementale, des collectivités territoriales et leurs groupements intéressés par le projet selon la nature et/ou la situation du projet"
  },
  "1": {
    "idNom": 1,
    "libNom": "Formulaire DP 13404 07"
  },
  "6": {
    "idNom": 6,
    "libNom": "Formulaire DPlotissement 13702 06"
  },
  "48": {
    "idNom": 48,
    "libNom": "Document par lequel le demandeur s’engage à installer des dispositifs conformes aux dispositions de l’arrêté prévu au 2° de l’article R. 111-23"
  },
  "64": {
    "idNom": 64,
    "libNom": "Justificatif de dépôt de la demande d’autorisation prévue à l’article R. 244-1 du code de l’aviation civile"
  },
  "16": {
    "idNom": 16,
    "libNom": "Statut de l’établissement public (à caractère industriel et commercial ou administratif)"
  },
  "4": {
    "idNom": 4,
    "libNom": "Formulaire PC 13409 07"
  },
  "26": {
    "idNom": 26,
    "libNom": "Bilan de la concertation"
  },
  "30": {
    "idNom": 30,
    "libNom": "Certificat indiquant la surface constructible attribuée à votre lot"
  },
  "49": {
    "idNom": 49,
    "libNom": "Document prévu par l’article R. 111-21 du code de la construction et de l’habitation attestant que la construction fait preuve d’exemplarité énergétique ou d’exemplarité environnementale ou est à énergie positive selon les critères définis par ces dispositions"
  },
  "12": {
    "idNom": 12,
    "libNom": "Attestation constatant que les travaux réalisés respectent les règles d’accessibilité applicables mentionnées à l’art"
  },
  "13": {
    "idNom": 13,
    "libNom": "Attestation d’un contrôleur technique"
  },
  "28": {
    "idNom": 28,
    "libNom": "Certificat attestant l’achèvement des équipements desservant le lot"
  },
  "34": {
    "idNom": 34,
    "libNom": "Dossier de demande d’autorisation de travaux [Art. L.111-6-1-3 du code de la construction et de l’habitation et arrêté du 8 décembre 2016 relatif aux modalités de constitution du dossier de demande d’autorisation de travaux conduisant à la création de locaux à usage d’habitation dans un immeuble existant]"
  },
  "37": {
    "idNom": 37,
    "libNom": "Copie des dispositions du cahier des charges de cession de terrain approuvé et publié dans les conditions de l’article D. 311-11-1 qui indiquent le nombre de m² constructibles sur la parcelle et, si elles existent, des dispositions du cahier des charges, qui fixent les prescriptions techniques, urbanistiques et architecturales imposées pour la durée de réalisation de la zone"
  },
  "40": {
    "idNom": 40,
    "libNom": "Déclaration d'achèvement est accompagnée d’un document établi par un contrôleur technique mentionné à l’article L. 111-23 de ce code, attestant que le maître d’ouvrage a tenu compte de ses avis sur le respect des règles de construction parasismiques et paracycloniques prévues par l’article L. 563-1 du code de l’environnement"
  },
  "62": {
    "idNom": 62,
    "libNom": "Formulaire attestant la prise en compte de la règlementation thermique et, le cas échéant, la réalisation de l’étude de faisabilité relative aux approvisionnements en énergie"
  },
  "33": {
    "idNom": 33,
    "libNom": "Attestation montrant le caractère équivalent des résultats obtenus par les moyens mis en oeuvre, ainsi que leur caractère innovant [Art. 5 de l’ordonnance n° 2018-937 du 30 octobre 2018]"
  },
  "36": {
    "idNom": 36,
    "libNom": "Copie de la lettre du préfet qui vous fait savoir que votre demande d’autorisation de défrichement est complète, si le défrichement est ou non soumis à reconnaissance de la situation et de l’état des terrains et si la demande doit ou non faire l’objet d’une enquête publique"
  },
  "5": {
    "idNom": 5,
    "libNom": "Formulaire CU 13410 05"
  },
  "8": {
    "idNom": 8,
    "libNom": "Formulaire PA 88065 06"
  },
  "7": {
    "idNom": 7,
    "libNom": "Formulaire DPMI 13703 07"
  },
  "17": {
    "idNom": 17,
    "libNom": "Statuts de l’association et justificatif de la gestion désintéressée au sens de l’article 206 1 bis 1er alinéa du code général des impôts"
  },
  "32": {
    "idNom": 32,
    "libNom": "Copie de l’agrément"
  },
  "65": {
    "idNom": 65,
    "libNom": "Justification de la date de la destruction, de la démolition ou du sinistre"
  },
  "23": {
    "idNom": 23,
    "libNom": "Attestation de prise en compte de la règlementation acoustique prévue par l’article R.111-4-2 du code de la construction et de l’habitation"
  },
  "19": {
    "idNom": 19,
    "libNom": "Attestation de l’aménageur certifiant qu’il a réalisé ou prendra en charge l’intégralité des travaux mentionnés à l’article R. 331-5 du code de l’urbanisme"
  },
  "54": {
    "idNom": 54,
    "libNom": "Dossier spécifique permettant de vérifier la conformité du projet avec les règles d’accessibilité aux personnes handicapées prévues aux articles R. 111-19-17 a) du code de la construction et de l’habitation"
  },
  "21": {
    "idNom": 21,
    "libNom": "Attestation de l’assureur, que les indemnités versées en réparation des dommages ne comprennent pas le montant des taxes d’urbanisme"
  },
  "27": {
    "idNom": 27,
    "libNom": "Document conclusif [Art. R. 431-16 m) du code de l’urbanisme]"
  },
  "44": {
    "idNom": 44,
    "libNom": "Descriptif des moyens mis en oeuvre pour éviter toute atteinte aux parties conservées du bâtiment"
  },
  "46": {
    "idNom": 46,
    "libNom": "Document graphique faisant apparaître l’état initial et l’état futur de chacune des parties du bâtiment faisant l’objet des travaux"
  },
  "20": {
    "idNom": 20,
    "libNom": "Attestation de l’architecte ou de l’expert certifiant que l’étude a été réalisée et que le projet la prend en compte"
  },
  "59": {
    "idNom": 59,
    "libNom": "Etude d’impact ou la décision de dispense d’une telle étude"
  },
  "41": {
    "idNom": 41,
    "libNom": "Délimitation de cette partie des constructions"
  },
  "42": {
    "idNom": 42,
    "libNom": "Demande de dérogation comprenant les précisions et les justifications définies à l’article R. 111-1-2 du code de la construction et de l’habitation"
  },
  "45": {
    "idNom": 45,
    "libNom": "Document graphique faisant apparaître l’état initial et l’état futur de chacun des éléments ou parties faisant l’objet de travaux"
  },
  "50": {
    "idNom": 50,
    "libNom": "Dossier d’autorisation d’exploitation commerciale"
  },
  "51": {
    "idNom": 51,
    "libNom": "Dossier d’évaluation des incidences prévu à l’art. R. 414-23 du code de l’environnement ou l’étude d’impact en tenant lieu"
  },
  "63": {
    "idNom": 63,
    "libNom": "Formulaire de déclaration de la redevance bureaux"
  },
  "43": {
    "idNom": 43,
    "libNom": "Descriptif des moyens mis en oeuvre pour éviter toute atteinte au patrimoine protégé"
  },
  "57": {
    "idNom": 57,
    "libNom": "Estimation sommaire du coût foncier"
  },
  "60": {
    "idNom": 60,
    "libNom": "Etude de sécurité"
  },
  "35": {
    "idNom": 35,
    "libNom": "Copie de la lettre du préfet attestant que le dossier de demande est complet"
  },
  "38": {
    "idNom": 38,
    "libNom": "Copie du contrat ayant procédé au transfert de possibilité de construction résultant du COS"
  },
  "103": {
    "idNom": 103,
    "libNom": "Note descriptive succincte"
  },
  "110": {
    "idNom": 110,
    "libNom": "Fiche de renseignement archéologique"
  },
  "80": {
    "idNom": 80,
    "libNom": "Photographie permettant de situer le terrain dans le paysage lointain"
  },
  "107": {
    "idNom": 107,
    "libNom": "Justificatif relatif aux habitations proches des exploitations agricoles"
  },
  "118": {
    "idNom": 118,
    "libNom": "Une notice décrivant le terrain et le projet d’aménagement prévu [Art. R. 441-3 du code de l’urbanisme]"
  },
  "71": {
    "idNom": 71,
    "libNom": "Note précisant la nature des travaux pour lesquels une dérogation est sollicitée et justifiant que ces travaux sont nécessaires pour permettre l’accessibilité du logement à des personnes handicapées"
  },
  "98": {
    "idNom": 98,
    "libNom": "Rescrit fiscal"
  },
  "108": {
    "idNom": 108,
    "libNom": "Justificatif relatif à la création de logements de fonction"
  },
  "119": {
    "idNom": 119,
    "libNom": "Un plan de l’état actuel du terrain à aménager et de ses abords [Art. R. 441-4 1° du code de l’urbanisme]"
  },
  "120": {
    "idNom": 120,
    "libNom": "Un plan de composition d’ensemble du projet coté dans les trois dimensions [Art. R. 441-4 2° du code de l’urbanisme]"
  },
  "122": {
    "idNom": 122,
    "libNom": "Le programme et les plans des travaux d’aménagement [Art. R. 442-5 c) du code de l’urbanisme]"
  },
  "72": {
    "idNom": 72,
    "libNom": "Notice complémentaire indiquant les matériaux utilisés et les modalités d’exécution des travaux"
  },
  "74": {
    "idNom": 74,
    "libNom": "Notice expliquant les raisons pour lesquelles la conservation du bâtiment ne peut plus être assurée"
  },
  "78": {
    "idNom": 78,
    "libNom": "Photographie du ou des bâtiments à démolir"
  },
  "86": {
    "idNom": 86,
    "libNom": "Plan de masse des constructions à édifier ou à modifier"
  },
  "95": {
    "idNom": 95,
    "libNom": "Récépissé de dépôt en préfecture de la demande d’autorisation prévue à l’article L. 122-1 du code de la construction et de l’habitation"
  },
  "101": {
    "idNom": 101,
    "libNom": "Tableau indiquant le nombre de logements familiaux et la part de ces logements familiaux correspondant à des logements locatifs sociaux définis à l’article L. 302-􀀘 du code de la construction et de l’habitation hors logements financés avec un prêt locatif social"
  },
  "89": {
    "idNom": 89,
    "libNom": "Plan de situation du terrain sur lequel sont réalisées les aires de stationnement et le plan des constructions et aménagements correspondants"
  },
  "91": {
    "idNom": 91,
    "libNom": "Plan en coupe du terrain et de la construction"
  },
  "102": {
    "idNom": 102,
    "libNom": "Plan du terrain, s’il existe des constructions"
  },
  "111": {
    "idNom": 111,
    "libNom": "Autre à préciser"
  },
  "96": {
    "idNom": 96,
    "libNom": "Récépissé de transmission du dossier à la commission départementale de la sécurité des transports de fonds"
  },
  "124": {
    "idNom": 124,
    "libNom": "Un projet de règlement s’il est envisagé d’apporter des compléments aux règles d’urbanisme en vigueur [Art. R. 442-6 a) du code de l’urbanisme] Le pourcentage consacré aux logements sociaux en cas de réalisation d’un programme de logement, si vous êtes dans un secteur délimité par un plan local d’urbanisme ou un document d’urbanisme en tenant lieu dans lesquels une partie doit être affectée à des logements sociaux [Art. L. 151-15 du code de l’urbanisme]."
  },
  "83": {
    "idNom": 83,
    "libNom": "Plan de division du terrain"
  },
  "88": {
    "idNom": 88,
    "libNom": "Plan de situation du terrain"
  },
  "93": {
    "idNom": 93,
    "libNom": "Projet de constitution d’une association syndicale des futurs propriétaires"
  },
  "94": {
    "idNom": 94,
    "libNom": "Promesse synallagmatique de concession ou d’acquisition"
  },
  "100": {
    "idNom": 100,
    "libNom": "Tableau indiquant la surface de plancher des logements créés correspondant aux catégories de logements dont la construction sur le terrain est imposée par le plan local d’urbanisme ou le document d’urbanisme en tenant lieu"
  },
  "105": {
    "idNom": 105,
    "libNom": "Descriptif des servitudes"
  },
  "68": {
    "idNom": 68,
    "libNom": "Justification du dépôt de la demande de permis de démolir"
  },
  "79": {
    "idNom": 79,
    "libNom": "Photographie permettant de situer le terrain dans l’environnement proche"
  },
  "90": {
    "idNom": 90,
    "libNom": "Plan des façades et des toitures"
  },
  "104": {
    "idNom": 104,
    "libNom": "Attestations relatives aux accès"
  },
  "123": {
    "idNom": 123,
    "libNom": "Un document graphique faisant apparaître une ou plusieurs hypothèses d’implantation des bâtiments [Art. R. 442-5 d) du code de l’urbanisme]"
  },
  "97": {
    "idNom": 97,
    "libNom": "Représentation de l’aspect extérieur de la construction faisant apparaître les modifications projetées"
  },
  "77": {
    "idNom": 77,
    "libNom": "Notice précisant la nature du commerce projeté et la surface de vente"
  },
  "109": {
    "idNom": 109,
    "libNom": "Résultat des études de sol demandées par le SPANC"
  },
  "82": {
    "idNom": 82,
    "libNom": "Pièces à joindre à une demande de permis de démolir, selon l’annexe ci-jointe"
  },
  "106": {
    "idNom": 106,
    "libNom": "Fiche de renseignement agricole"
  },
  "121": {
    "idNom": 121,
    "libNom": "Deux vues et coupes faisant apparaître la situation du projet dans le profil du terrain naturel [Art. R. 442-5 a) du code de l’urbanisme]"
  },
  "70": {
    "idNom": 70,
    "libNom": "Note précisant la nature de la ou des dérogations demandées justifiant du respect des objectifs et des conditions fixées aux articles L .151-29-1, L .152-5 et L .152-6 du code de l’urbanisme pour chacune des dérogations demandées"
  },
  "92": {
    "idNom": 92,
    "libNom": "Plan sommaire des lieux indiquant, le cas échéant, les bâtiments de toute nature existant sur le terrain"
  },
  "99": {
    "idNom": 99,
    "libNom": "Tableau indiquant la proportion de logements de la taille minimale imposée par le plan local d’urbanisme ou par le document en tenant lieu"
  },
  "66": {
    "idNom": 66,
    "libNom": "Justification du dépôt de déclaration au titre de la législation relative aux Installations Classées pour la Protection de l’Environnement"
  },
  "73": {
    "idNom": 73,
    "libNom": "Notice décrivant le terrain et présentant le projet"
  },
  "81": {
    "idNom": 81,
    "libNom": "Photographies des façades et toitures du bâtiment et de ses dispositions intérieures"
  },
  "84": {
    "idNom": 84,
    "libNom": "Plan de masse coté dans les 3 dimensions"
  },
  "69": {
    "idNom": 69,
    "libNom": "Mention de la surface de plancher correspondante"
  },
  "76": {
    "idNom": 76,
    "libNom": "Notice précisant l’activité économique qui doit être exercée dans le bâtiment"
  },
  "85": {
    "idNom": 85,
    "libNom": "Plan de masse des constructions à démolir ou s’il y a lieu à conserver"
  },
  "125":{
    "idNom": 125,
    "libNom": "Fiche complémentaires des autres demandeurs"
  },
  "126":{
    "idNom": 126,
    "libNom": "Si nécessaire, l’attestation de la garantie d’achèvement des travaux exigée par l’article R. 442-14 du code de l’urbanisme [Art. R. 442-6 a) du code de l’urbanisme]"
  },
  "127":{
    "idNom": 127,
    "libNom": "L’engagement du lotisseur de constituer une association syndicale des acquéreurs de lots [Art. R. 442-7 du code de l’urbanisme]"
  },
  "128":{
    "idNom": 128,
    "libNom": "Un croquis et un plan coté dans les trois dimensions faisant apparaître la ou les divisions projetées [Art. R. 441-10 c) du code de l’urbanisme] "
  },
  "129":{
    "idNom": 129,
    "libNom": "Un engagement d’exploiter le terrain selon le mode de gestion que vous avez indiqué dans votre demande [Art. R. 443-4 du code de l’urbanisme]"
  },
  "130":{
    "idNom": 130,
    "libNom": "Des photographies faisant apparaître l’ensemble des parties extérieures et intérieures du bâtiment adossées à l’immeuble classé [Art. R. 451-4 a) du code de l’urbanisme]"
  },
  "131":{
    "idNom": 131,
    "libNom": "Le descriptif des moyens mis en oeuvre pour éviter toute atteinte à l’immeuble classé [Art. R. 451-4 b) du code de l’urbanisme]"
  },
  "133":{
    "idNom": 133,
    "libNom": "Copie de la convention de projet urbain partenarial"
  },
  "134":{
    "idNom": 134,
    "libNom": "Déclaration des éléments nécessaires au calcul des impositions"
  },
  "135":{
    "idNom": 135,
    "libNom": "Formulaire DOC 13407"
  },
  "136":{
    "idNom": 136,
    "libNom": "Formulaire DAACT 13408"
  },
  "137":{
    "idNom": 137,
    "libNom": "Attestation de l’accord du lotisseur pour un projet en cas de construction"
  },
  "138":{
    "idNom": 138,
    "libNom": "Attestation établie par un bureau d’études certifié dans le domaine des sites et sols pollués pour un projet qui comporte des constructions pour un secteur d'information"
  },
  "139":{
    "idNom": 139,
    "libNom": "Attestation établie par un bureau d’études certifié dans le domaine des sites et sols pollués  selon la nature et/ou la situation du projet sur un terrain ayant accueilli une installation classée"
  },
  "140":{
    "idNom": 140,
    "libNom": "Attestation établie par un bureau d’études certifié dans le domaine des sites et sols pollués selon la nature et/ou la situation du projet pour un secteur d'information"
  },
  "141":{
    "idNom": 141,
    "libNom": "Copie de la lettre du préfet qui vous fait savoir que votre demande d’autorisation de défrichement est complète selon la nature et/ou la situation du projet"
  },
  "142":{
    "idNom": 142,
    "libNom": "Dossier d’évaluation des incidences ou étude d’impact en tenant lieu si votre projet comporte des constructions"
  },
  "143":{
    "idNom": 143,
    "libNom": "Etude d’impact actualisée ainsi que les avis de l’autorité environnementale, des collectivités territoriales et leurs groupements intéressés si votre projet comporte des constructions"
  },
  "144":{
    "idNom": 144,
    "libNom": "Etude d’impact ou décision de dispense d’une telle étude si votre projet comporte des constructions"
  },
  "145":{
    "idNom": 145,
    "libNom": "Attestation de prise en compte de la règlementation thermique fournie avec la DAACT pour une construction "
  },
  "146":{
    "idNom": 146,
    "libNom": "Attestation de prise en compte de la règlementation thermique fournie avec la DAACT dans le cas d'une réhabilitation "
  },
  "147":{
    "idNom": 147,
    "libNom": "Attestation de conformité du projet d’installation d’assainissement non collectif pour un projet sans construction"
  },
  "148":{
    "idNom": 148,
    "libNom": "Notice expliquant les raisons pour lesquelles la conservation du bâtiment ne peut plus être assurée en cas de démolition partielle"
  },
  "149":{
    "idNom": 149,
    "libNom": "Photographies des façades et toitures du bâtiment et de ses dispositions intérieures en cas de démolition partielle"
  },
  "150":{
    "idNom": 150,
    "libNom": "Formulaire attestant la prise en compte des performances énergétiques et environnementale et, le cas échéant, la réalisation de l'étude de faisabilité relative aux approvisionnements en énergie"
  },
  "151":{
    "idNom": 151,
    "libNom": "Formulaire ERP 13824 travaux non soumis à PC"
  },
  "152":{
    "idNom": 152,
    "libNom": "Formulaire ERP travaux soumis à PC"
  },
  "153":{
    "idNom": 153,
    "libNom": "Demande de modification d'un permis délivré en cours de validité N°13411"
  },
  "154":{
    "idNom": 154,
    "libNom": "Formulaire de demande de transfert de permis délivré en cours de validité N° 13412"
  },
  "155":{
    "idNom": 155,
    "libNom": "Etude d’impact ou la décision de dispense d’une telle étude"
  },
  "156":{
    "idNom": 156,
    "libNom": "Etude d’impact actualisée ainsi que les avis de l’autorité environnementale, des collectivités territoriales et leurs groupements intéressés par le projet"
  },
  "157":{
    "idNom": 157,
    "libNom": "Formulaire attestant la prise en compte des exigences de performance énergétique et environnementale et, le cas échéant, la réalisation de l'étude de faisabilité relative aux approvisionnements en énergie en application des dispositions du code de la construction et de l'habitation"
  },
  "158":{
    "idNom": 158,
    "libNom": "Attestation de la prise en compte des exigences de performance énergétique et environnementale prévue par le code de la construction et de l’habitation"
  },
  "159":{
    "idNom": 159,
    "libNom": "Document contenant la mention et les éléments prévus par le code du tourisme"
  },
  "160":{
    "idNom": 160,
    "libNom": "Demande de dérogation comprenant le document prévu par le code de la construction et de l'habitation attestant que la construction fait preuve d'exemplarité environnementale"
  },
  "161":{
    "idNom": 161,
    "libNom": "Décision prise sur la demande de dérogation à l’obligation de raccordement à un réseau de chaleur et de froid prévue par le code de l’énergie"
  },
  "162":{
    "idNom": 162,
    "libNom": "Récépissé de la demande d'enregistrement lorsqu'il s'agit d'une installation classée pour la protection de l'environnement pour laquelle une demande d'enregistrement a été déposée"
  },
  "163":{
    "idNom": 163,
    "libNom": "Pièce demandée dans le cadre d'un document d'urbanisme"
  },
  "164":{
    "idNom": 164,
    "libNom": "Formulaire DIA 10072"
  },
  "165":{
    "idNom": 165,
    "libNom": "Plan cadastral"
  },
  "166":{
    "idNom": 166,
    "libNom": "Règlement et cahier des charges du lotissement"
  },
  "167":{
    "idNom": 167,
    "libNom": "Pouvoir ou mandat"
  },
  "168":{
    "idNom": 168,
    "libNom": "Etat locatif précisant la nature du bail, le montant annuel hors charges du loyer, la date de prise d’effet et de fin de bail et le nom du locataire"
  },
  "169":{
    "idNom": 169,
    "libNom": "Informations relatives aux installations soumises à autorisation ou à enregistrement au titre du code de l’environnement"
  }
}
